(kicad_sch (version 20201015) (generator eeschema)

  (paper "A4")

  (title_block
    (date "2020-11-06")
  )

  (lib_symbols
    (symbol "Cart-rescue:24AA256SN" (pin_names (offset 1.016)) (in_bom yes) (on_board yes)
      (property "Reference" "IC" (id 0) (at -10.16 11.43 0)
        (effects (font (size 1.27 1.27)) (justify left bottom))
      )
      (property "Value" "24AA256SN" (id 1) (at -10.16 -10.16 0)
        (effects (font (size 1.27 1.27)) (justify left bottom))
      )
      (property "Footprint" "microchip-SO-08" (id 2) (at 0 3.81 0)
        (effects (font (size 1.27 1.27)) hide)
      )
      (property "Datasheet" "" (id 3) (at 0 0 0)
        (effects (font (size 1.524 1.524)))
      )
      (property "ki_locked" "" (id 4) (at 0 0 0)
        (effects (font (size 1.27 1.27)))
      )
      (symbol "24AA256SN_1_0"
        (text "Array" (at 2.921 -0.381 1)
          (effects (font (size 1.778 1.778)))
        )
        (text "EEPROM" (at 0.635 0.508 1)
          (effects (font (size 1.778 1.778)))
        )
        (text "GND" (at 9.525 -5.969 0)
          (effects (font (size 1.778 1.778)))
        )
        (text "VCC" (at 9.271 8.509 0)
          (effects (font (size 1.778 1.778)))
        )
        (polyline
          (pts
            (xy -10.16 -7.62)
            (xy -10.16 -5.08)
          )
          (stroke (width 0)) (fill (type none))
        )
        (polyline
          (pts
            (xy -10.16 -5.08)
            (xy -10.16 -2.54)
          )
          (stroke (width 0)) (fill (type none))
        )
        (polyline
          (pts
            (xy -10.16 -5.08)
            (xy -8.636 -5.08)
          )
          (stroke (width 0)) (fill (type none))
        )
        (polyline
          (pts
            (xy -10.16 -2.54)
            (xy -10.16 0)
          )
          (stroke (width 0)) (fill (type none))
        )
        (polyline
          (pts
            (xy -10.16 -2.54)
            (xy -8.636 -2.54)
          )
          (stroke (width 0)) (fill (type none))
        )
        (polyline
          (pts
            (xy -10.16 0)
            (xy -10.16 5.08)
          )
          (stroke (width 0)) (fill (type none))
        )
        (polyline
          (pts
            (xy -10.16 0)
            (xy -8.636 0)
          )
          (stroke (width 0)) (fill (type none))
        )
        (polyline
          (pts
            (xy -10.16 5.08)
            (xy -10.16 7.62)
          )
          (stroke (width 0)) (fill (type none))
        )
        (polyline
          (pts
            (xy -10.16 5.08)
            (xy -8.636 5.08)
          )
          (stroke (width 0)) (fill (type none))
        )
        (polyline
          (pts
            (xy -10.16 7.62)
            (xy -10.16 10.16)
          )
          (stroke (width 0)) (fill (type none))
        )
        (polyline
          (pts
            (xy -10.16 7.62)
            (xy -8.636 7.62)
          )
          (stroke (width 0)) (fill (type none))
        )
        (polyline
          (pts
            (xy -10.16 10.16)
            (xy 12.7 10.16)
          )
          (stroke (width 0)) (fill (type none))
        )
        (polyline
          (pts
            (xy -4.826 -5.08)
            (xy -2.54 -5.08)
          )
          (stroke (width 0)) (fill (type none))
        )
        (polyline
          (pts
            (xy -4.826 -2.54)
            (xy -2.54 -2.54)
          )
          (stroke (width 0)) (fill (type none))
        )
        (polyline
          (pts
            (xy -4.826 0)
            (xy -2.54 0)
          )
          (stroke (width 0)) (fill (type none))
        )
        (polyline
          (pts
            (xy -4.572 5.08)
            (xy -2.54 5.08)
          )
          (stroke (width 0)) (fill (type none))
        )
        (polyline
          (pts
            (xy -3.81 7.62)
            (xy -2.54 7.62)
          )
          (stroke (width 0)) (fill (type none))
        )
        (polyline
          (pts
            (xy -2.54 -6.604)
            (xy -2.54 -5.08)
          )
          (stroke (width 0)) (fill (type none))
        )
        (polyline
          (pts
            (xy -2.54 -5.08)
            (xy -2.54 -2.54)
          )
          (stroke (width 0)) (fill (type none))
        )
        (polyline
          (pts
            (xy -2.54 -2.54)
            (xy -2.54 0)
          )
          (stroke (width 0)) (fill (type none))
        )
        (polyline
          (pts
            (xy -2.54 0)
            (xy -2.54 1.016)
          )
          (stroke (width 0)) (fill (type none))
        )
        (polyline
          (pts
            (xy -2.54 1.016)
            (xy -2.54 3.556)
          )
          (stroke (width 0)) (fill (type none))
        )
        (polyline
          (pts
            (xy -2.54 1.016)
            (xy -1.016 1.016)
          )
          (stroke (width 0)) (fill (type none))
        )
        (polyline
          (pts
            (xy -2.54 3.556)
            (xy -2.54 5.08)
          )
          (stroke (width 0)) (fill (type none))
        )
        (polyline
          (pts
            (xy -2.54 3.556)
            (xy -1.016 3.556)
          )
          (stroke (width 0)) (fill (type none))
        )
        (polyline
          (pts
            (xy -2.54 5.08)
            (xy -2.54 7.62)
          )
          (stroke (width 0)) (fill (type none))
        )
        (polyline
          (pts
            (xy -2.54 7.62)
            (xy -2.54 8.89)
          )
          (stroke (width 0)) (fill (type none))
        )
        (polyline
          (pts
            (xy -2.54 8.89)
            (xy 4.826 8.89)
          )
          (stroke (width 0)) (fill (type none))
        )
        (polyline
          (pts
            (xy -1.016 -6.604)
            (xy -2.54 -6.604)
          )
          (stroke (width 0)) (fill (type none))
        )
        (polyline
          (pts
            (xy -1.016 1.016)
            (xy -1.016 -6.604)
          )
          (stroke (width 0)) (fill (type none))
        )
        (polyline
          (pts
            (xy -1.016 8.636)
            (xy -1.016 3.556)
          )
          (stroke (width 0)) (fill (type none))
        )
        (polyline
          (pts
            (xy 4.826 -6.604)
            (xy -1.016 -6.604)
          )
          (stroke (width 0)) (fill (type none))
        )
        (polyline
          (pts
            (xy 4.826 0)
            (xy 4.826 -6.604)
          )
          (stroke (width 0)) (fill (type none))
        )
        (polyline
          (pts
            (xy 4.826 8.89)
            (xy 4.826 0)
          )
          (stroke (width 0)) (fill (type none))
        )
        (polyline
          (pts
            (xy 5.588 0)
            (xy 4.826 0)
          )
          (stroke (width 0)) (fill (type none))
        )
        (polyline
          (pts
            (xy 12.7 -7.62)
            (xy -10.16 -7.62)
          )
          (stroke (width 0)) (fill (type none))
        )
        (polyline
          (pts
            (xy 12.7 0)
            (xy 10.922 0)
          )
          (stroke (width 0)) (fill (type none))
        )
        (polyline
          (pts
            (xy 12.7 0)
            (xy 12.7 -7.62)
          )
          (stroke (width 0)) (fill (type none))
        )
        (polyline
          (pts
            (xy 12.7 10.16)
            (xy 12.7 0)
          )
          (stroke (width 0)) (fill (type none))
        )
      )
      (symbol "24AA256SN_1_1"
        (pin input line (at -12.7 -5.08 0) (length 2.54)
          (name "A0" (effects (font (size 1.016 1.016))))
          (number "1" (effects (font (size 1.016 1.016))))
        )
        (pin input line (at -12.7 -2.54 0) (length 2.54)
          (name "A1" (effects (font (size 1.016 1.016))))
          (number "2" (effects (font (size 1.016 1.016))))
        )
        (pin input line (at -12.7 0 0) (length 2.54)
          (name "A2" (effects (font (size 1.016 1.016))))
          (number "3" (effects (font (size 1.016 1.016))))
        )
        (pin power_in line (at 7.62 -10.16 90) (length 2.54)
          (name "GND" (effects (font (size 1.016 1.016))))
          (number "4" (effects (font (size 1.016 1.016))))
        )
        (pin bidirectional line (at 15.24 0 180) (length 2.54)
          (name "SDA" (effects (font (size 1.016 1.016))))
          (number "5" (effects (font (size 1.016 1.016))))
        )
        (pin input line (at -12.7 7.62 0) (length 2.54)
          (name "SCL" (effects (font (size 1.016 1.016))))
          (number "6" (effects (font (size 1.016 1.016))))
        )
        (pin input line (at -12.7 5.08 0) (length 2.54)
          (name "WP" (effects (font (size 1.016 1.016))))
          (number "7" (effects (font (size 1.016 1.016))))
        )
        (pin power_in line (at 7.62 12.7 270) (length 2.54)
          (name "VCC" (effects (font (size 1.016 1.016))))
          (number "8" (effects (font (size 1.016 1.016))))
        )
      )
    )
    (symbol "Cart-rescue:93LCS66SM" (pin_names (offset 1.016)) (in_bom yes) (on_board yes)
      (property "Reference" "IC" (id 0) (at -10.16 11.43 0)
        (effects (font (size 1.27 1.27)) (justify left bottom))
      )
      (property "Value" "93LCS66SM" (id 1) (at -10.16 -12.7 0)
        (effects (font (size 1.27 1.27)) (justify left bottom))
      )
      (property "Footprint" "microchip-SO-08M" (id 2) (at 0 3.81 0)
        (effects (font (size 1.27 1.27)) hide)
      )
      (property "Datasheet" "" (id 3) (at 0 0 0)
        (effects (font (size 1.524 1.524)))
      )
      (property "ki_locked" "" (id 4) (at 0 0 0)
        (effects (font (size 1.27 1.27)))
      )
      (symbol "93LCS66SM_1_0"
        (text "Array" (at 2.921 -2.921 1)
          (effects (font (size 1.778 1.778)))
        )
        (text "EEPROM" (at 0.635 -2.032 1)
          (effects (font (size 1.778 1.778)))
        )
        (text "GND" (at 9.525 -8.509 0)
          (effects (font (size 1.778 1.778)))
        )
        (text "VCC" (at 9.271 8.509 0)
          (effects (font (size 1.778 1.778)))
        )
        (polyline
          (pts
            (xy -10.16 -10.16)
            (xy -10.16 -7.62)
          )
          (stroke (width 0)) (fill (type none))
        )
        (polyline
          (pts
            (xy -10.16 -7.62)
            (xy -10.16 0)
          )
          (stroke (width 0)) (fill (type none))
        )
        (polyline
          (pts
            (xy -10.16 -7.62)
            (xy -8.636 -7.62)
          )
          (stroke (width 0)) (fill (type none))
        )
        (polyline
          (pts
            (xy -10.16 0)
            (xy -10.16 2.54)
          )
          (stroke (width 0)) (fill (type none))
        )
        (polyline
          (pts
            (xy -10.16 0)
            (xy -8.636 0)
          )
          (stroke (width 0)) (fill (type none))
        )
        (polyline
          (pts
            (xy -10.16 2.54)
            (xy -10.16 7.62)
          )
          (stroke (width 0)) (fill (type none))
        )
        (polyline
          (pts
            (xy -10.16 2.54)
            (xy -8.636 2.54)
          )
          (stroke (width 0)) (fill (type none))
        )
        (polyline
          (pts
            (xy -10.16 7.62)
            (xy -10.16 10.16)
          )
          (stroke (width 0)) (fill (type none))
        )
        (polyline
          (pts
            (xy -10.16 7.62)
            (xy -8.636 7.62)
          )
          (stroke (width 0)) (fill (type none))
        )
        (polyline
          (pts
            (xy -10.16 10.16)
            (xy 12.7 10.16)
          )
          (stroke (width 0)) (fill (type none))
        )
        (polyline
          (pts
            (xy -4.572 -7.62)
            (xy -2.54 -7.62)
          )
          (stroke (width 0)) (fill (type none))
        )
        (polyline
          (pts
            (xy -4.572 -2.54)
            (xy -2.54 -2.54)
          )
          (stroke (width 0)) (fill (type none))
        )
        (polyline
          (pts
            (xy -4.572 0)
            (xy -2.54 0)
          )
          (stroke (width 0)) (fill (type none))
        )
        (polyline
          (pts
            (xy -3.556 7.62)
            (xy -2.54 7.62)
          )
          (stroke (width 0)) (fill (type none))
        )
        (polyline
          (pts
            (xy -2.54 -9.144)
            (xy -2.54 -7.62)
          )
          (stroke (width 0)) (fill (type none))
        )
        (polyline
          (pts
            (xy -2.54 -7.62)
            (xy -2.54 -4.064)
          )
          (stroke (width 0)) (fill (type none))
        )
        (polyline
          (pts
            (xy -2.54 -4.064)
            (xy -2.54 -2.54)
          )
          (stroke (width 0)) (fill (type none))
        )
        (polyline
          (pts
            (xy -2.54 -4.064)
            (xy -1.016 -4.064)
          )
          (stroke (width 0)) (fill (type none))
        )
        (polyline
          (pts
            (xy -2.54 -2.54)
            (xy -2.54 0)
          )
          (stroke (width 0)) (fill (type none))
        )
        (polyline
          (pts
            (xy -2.54 0)
            (xy -2.54 4.572)
          )
          (stroke (width 0)) (fill (type none))
        )
        (polyline
          (pts
            (xy -2.54 4.572)
            (xy -2.54 7.62)
          )
          (stroke (width 0)) (fill (type none))
        )
        (polyline
          (pts
            (xy -2.54 4.572)
            (xy -1.016 4.572)
          )
          (stroke (width 0)) (fill (type none))
        )
        (polyline
          (pts
            (xy -2.54 7.62)
            (xy -2.54 8.89)
          )
          (stroke (width 0)) (fill (type none))
        )
        (polyline
          (pts
            (xy -2.54 8.89)
            (xy -1.016 8.89)
          )
          (stroke (width 0)) (fill (type none))
        )
        (polyline
          (pts
            (xy -1.016 4.572)
            (xy -1.016 -4.064)
          )
          (stroke (width 0)) (fill (type none))
        )
        (polyline
          (pts
            (xy -1.016 8.89)
            (xy -1.016 4.572)
          )
          (stroke (width 0)) (fill (type none))
        )
        (polyline
          (pts
            (xy -1.016 8.89)
            (xy 5.08 8.89)
          )
          (stroke (width 0)) (fill (type none))
        )
        (polyline
          (pts
            (xy 5.08 -9.144)
            (xy -2.54 -9.144)
          )
          (stroke (width 0)) (fill (type none))
        )
        (polyline
          (pts
            (xy 5.08 0)
            (xy 5.08 -9.144)
          )
          (stroke (width 0)) (fill (type none))
        )
        (polyline
          (pts
            (xy 5.08 8.89)
            (xy 5.08 0)
          )
          (stroke (width 0)) (fill (type none))
        )
        (polyline
          (pts
            (xy 6.35 0)
            (xy 5.08 0)
          )
          (stroke (width 0)) (fill (type none))
        )
        (polyline
          (pts
            (xy 12.7 -10.16)
            (xy -10.16 -10.16)
          )
          (stroke (width 0)) (fill (type none))
        )
        (polyline
          (pts
            (xy 12.7 0)
            (xy 10.922 0)
          )
          (stroke (width 0)) (fill (type none))
        )
        (polyline
          (pts
            (xy 12.7 0)
            (xy 12.7 -10.16)
          )
          (stroke (width 0)) (fill (type none))
        )
        (polyline
          (pts
            (xy 12.7 10.16)
            (xy 12.7 0)
          )
          (stroke (width 0)) (fill (type none))
        )
      )
      (symbol "93LCS66SM_1_1"
        (pin input line (at -12.7 0 0) (length 2.54)
          (name "CS" (effects (font (size 1.016 1.016))))
          (number "1" (effects (font (size 1.016 1.016))))
        )
        (pin input line (at -12.7 7.62 0) (length 2.54)
          (name "CLK" (effects (font (size 1.016 1.016))))
          (number "2" (effects (font (size 1.016 1.016))))
        )
        (pin input line (at -12.7 -7.62 0) (length 2.54)
          (name "DI" (effects (font (size 1.016 1.016))))
          (number "3" (effects (font (size 1.016 1.016))))
        )
        (pin tri_state line (at 15.24 0 180) (length 2.54)
          (name "DO" (effects (font (size 1.016 1.016))))
          (number "4" (effects (font (size 1.016 1.016))))
        )
        (pin power_in line (at 7.62 -12.7 90) (length 2.54)
          (name "GND" (effects (font (size 1.016 1.016))))
          (number "5" (effects (font (size 1.016 1.016))))
        )
        (pin input line (at -12.7 -2.54 0) (length 2.54)
          (name "PE" (effects (font (size 1.016 1.016))))
          (number "6" (effects (font (size 1.016 1.016))))
        )
        (pin input line (at -12.7 2.54 0) (length 2.54)
          (name "PRE" (effects (font (size 1.016 1.016))))
          (number "7" (effects (font (size 1.016 1.016))))
        )
        (pin power_in line (at 7.62 12.7 270) (length 2.54)
          (name "VCC" (effects (font (size 1.016 1.016))))
          (number "8" (effects (font (size 1.016 1.016))))
        )
      )
    )
    (symbol "Connector_Generic:Conn_01x04" (pin_names (offset 1.016) hide) (in_bom yes) (on_board yes)
      (property "Reference" "J" (id 0) (at 0 5.08 0)
        (effects (font (size 1.27 1.27)))
      )
      (property "Value" "Conn_01x04" (id 1) (at 0 -7.62 0)
        (effects (font (size 1.27 1.27)))
      )
      (property "Footprint" "" (id 2) (at 0 0 0)
        (effects (font (size 1.27 1.27)) hide)
      )
      (property "Datasheet" "~" (id 3) (at 0 0 0)
        (effects (font (size 1.27 1.27)) hide)
      )
      (property "ki_keywords" "connector" (id 4) (at 0 0 0)
        (effects (font (size 1.27 1.27)) hide)
      )
      (property "ki_description" "Generic connector, single row, 01x04, script generated (kicad-library-utils/schlib/autogen/connector/)" (id 5) (at 0 0 0)
        (effects (font (size 1.27 1.27)) hide)
      )
      (property "ki_fp_filters" "Connector*:*_1x??_*" (id 6) (at 0 0 0)
        (effects (font (size 1.27 1.27)) hide)
      )
      (symbol "Conn_01x04_1_1"
        (rectangle (start -1.27 -4.953) (end 0 -5.207)
          (stroke (width 0.1524)) (fill (type none))
        )
        (rectangle (start -1.27 -2.413) (end 0 -2.667)
          (stroke (width 0.1524)) (fill (type none))
        )
        (rectangle (start -1.27 2.667) (end 0 2.413)
          (stroke (width 0.1524)) (fill (type none))
        )
        (rectangle (start -1.27 3.81) (end 1.27 -6.35)
          (stroke (width 0.254)) (fill (type background))
        )
        (rectangle (start -1.27 0.127) (end 0 -0.127)
          (stroke (width 0.1524)) (fill (type none))
        )
        (pin passive line (at -5.08 2.54 0) (length 3.81)
          (name "Pin_1" (effects (font (size 1.27 1.27))))
          (number "1" (effects (font (size 1.27 1.27))))
        )
        (pin passive line (at -5.08 0 0) (length 3.81)
          (name "Pin_2" (effects (font (size 1.27 1.27))))
          (number "2" (effects (font (size 1.27 1.27))))
        )
        (pin passive line (at -5.08 -2.54 0) (length 3.81)
          (name "Pin_3" (effects (font (size 1.27 1.27))))
          (number "3" (effects (font (size 1.27 1.27))))
        )
        (pin passive line (at -5.08 -5.08 0) (length 3.81)
          (name "Pin_4" (effects (font (size 1.27 1.27))))
          (number "4" (effects (font (size 1.27 1.27))))
        )
      )
    )
    (symbol "Jumper:Jumper_3_Bridged12" (pin_names (offset 0) hide) (in_bom yes) (on_board yes)
      (property "Reference" "JP" (id 0) (at -2.54 -2.54 0)
        (effects (font (size 1.27 1.27)))
      )
      (property "Value" "Jumper_3_Bridged12" (id 1) (at 0 2.794 0)
        (effects (font (size 1.27 1.27)))
      )
      (property "Footprint" "" (id 2) (at 0 0 0)
        (effects (font (size 1.27 1.27)) hide)
      )
      (property "Datasheet" "~" (id 3) (at 0 0 0)
        (effects (font (size 1.27 1.27)) hide)
      )
      (property "ki_keywords" "Jumper SPDT" (id 4) (at 0 0 0)
        (effects (font (size 1.27 1.27)) hide)
      )
      (property "ki_description" "Jumper, 3-pole, pins 1+2 closed/bridged" (id 5) (at 0 0 0)
        (effects (font (size 1.27 1.27)) hide)
      )
      (property "ki_fp_filters" "Jumper* TestPoint*3Pads* TestPoint*Bridge*" (id 6) (at 0 0 0)
        (effects (font (size 1.27 1.27)) hide)
      )
      (symbol "Jumper_3_Bridged12_0_0"
        (circle (center -3.302 0) (radius 0.508) (stroke (width 0)) (fill (type none)))
        (circle (center 0 0) (radius 0.508) (stroke (width 0)) (fill (type none)))
        (circle (center 3.302 0) (radius 0.508) (stroke (width 0)) (fill (type none)))
      )
      (symbol "Jumper_3_Bridged12_0_1"
        (arc (start -3.048 0.508) (end -0.254 0.508) (radius (at -1.651 -1.27) (length 2.2606) (angles 128.2 51.8))
          (stroke (width 0)) (fill (type none))
        )
        (polyline
          (pts
            (xy 0 -1.27)
            (xy 0 -0.508)
          )
          (stroke (width 0)) (fill (type none))
        )
      )
      (symbol "Jumper_3_Bridged12_1_1"
        (pin passive line (at -6.35 0 0) (length 2.54)
          (name "A" (effects (font (size 1.27 1.27))))
          (number "1" (effects (font (size 1.27 1.27))))
        )
        (pin input line (at 0 -3.81 90) (length 2.54)
          (name "C" (effects (font (size 1.27 1.27))))
          (number "2" (effects (font (size 1.27 1.27))))
        )
        (pin passive line (at 6.35 0 180) (length 2.54)
          (name "B" (effects (font (size 1.27 1.27))))
          (number "3" (effects (font (size 1.27 1.27))))
        )
      )
    )
    (symbol "atarilynx:LYNXCART" (pin_names (offset 1.016)) (in_bom yes) (on_board yes)
      (property "Reference" "CON" (id 0) (at 0 0 0)
        (effects (font (size 1.27 1.27)))
      )
      (property "Value" "LYNXCART" (id 1) (at 0 0 0)
        (effects (font (size 1.27 1.27)))
      )
      (property "Footprint" "atarilynx-LYNXCART" (id 2) (at 0 3.81 0)
        (effects (font (size 1.27 1.27)) hide)
      )
      (property "Datasheet" "" (id 3) (at 0 0 0)
        (effects (font (size 1.524 1.524)))
      )
      (property "ki_locked" "" (id 4) (at 0 0 0)
        (effects (font (size 1.27 1.27)))
      )
      (symbol "LYNXCART_1_0"
        (polyline
          (pts
            (xy -10.16 -40.64)
            (xy 10.16 -40.64)
          )
          (stroke (width 0)) (fill (type none))
        )
        (polyline
          (pts
            (xy -10.16 48.26)
            (xy -10.16 -40.64)
          )
          (stroke (width 0)) (fill (type none))
        )
        (polyline
          (pts
            (xy 10.16 48.26)
            (xy -10.16 48.26)
          )
          (stroke (width 0)) (fill (type none))
        )
      )
      (symbol "LYNXCART_1_1"
        (pin power_in line (at 7.62 45.72 180) (length 5.08)
          (name "GND" (effects (font (size 1.016 1.016))))
          (number "P$1" (effects (font (size 1.016 1.016))))
        )
        (pin bidirectional line (at 7.62 43.18 180) (length 5.08)
          (name "D3" (effects (font (size 1.016 1.016))))
          (number "P$2" (effects (font (size 1.016 1.016))))
        )
        (pin bidirectional line (at 7.62 40.64 180) (length 5.08)
          (name "D2" (effects (font (size 1.016 1.016))))
          (number "P$3" (effects (font (size 1.016 1.016))))
        )
        (pin bidirectional line (at 7.62 38.1 180) (length 5.08)
          (name "D4" (effects (font (size 1.016 1.016))))
          (number "P$4" (effects (font (size 1.016 1.016))))
        )
        (pin bidirectional line (at 7.62 35.56 180) (length 5.08)
          (name "D1" (effects (font (size 1.016 1.016))))
          (number "P$5" (effects (font (size 1.016 1.016))))
        )
        (pin bidirectional line (at 7.62 33.02 180) (length 5.08)
          (name "D5" (effects (font (size 1.016 1.016))))
          (number "P$6" (effects (font (size 1.016 1.016))))
        )
        (pin bidirectional line (at 7.62 30.48 180) (length 5.08)
          (name "D0" (effects (font (size 1.016 1.016))))
          (number "P$7" (effects (font (size 1.016 1.016))))
        )
        (pin bidirectional line (at 7.62 27.94 180) (length 5.08)
          (name "D6" (effects (font (size 1.016 1.016))))
          (number "P$8" (effects (font (size 1.016 1.016))))
        )
        (pin bidirectional line (at 7.62 25.4 180) (length 5.08)
          (name "D7" (effects (font (size 1.016 1.016))))
          (number "P$9" (effects (font (size 1.016 1.016))))
        )
        (pin output line (at 7.62 22.86 180) (length 5.08)
          (name "OE/" (effects (font (size 1.016 1.016))))
          (number "P$10" (effects (font (size 1.016 1.016))))
        )
        (pin output line (at 7.62 -2.54 180) (length 5.08)
          (name "A17" (effects (font (size 1.016 1.016))))
          (number "P$20" (effects (font (size 1.016 1.016))))
        )
        (pin output line (at 7.62 -27.94 180) (length 5.08)
          (name "A10" (effects (font (size 1.016 1.016))))
          (number "P$30" (effects (font (size 1.016 1.016))))
        )
        (pin output line (at 7.62 20.32 180) (length 5.08)
          (name "A1" (effects (font (size 1.016 1.016))))
          (number "P$11" (effects (font (size 1.016 1.016))))
        )
        (pin output line (at 7.62 -5.08 180) (length 5.08)
          (name "A18" (effects (font (size 1.016 1.016))))
          (number "P$21" (effects (font (size 1.016 1.016))))
        )
        (pin input line (at 7.62 -30.48 180) (length 5.08)
          (name "CART" (effects (font (size 1.016 1.016))))
          (number "P$31" (effects (font (size 1.016 1.016))))
        )
        (pin output line (at 7.62 17.78 180) (length 5.08)
          (name "A2" (effects (font (size 1.016 1.016))))
          (number "P$12" (effects (font (size 1.016 1.016))))
        )
        (pin output line (at 7.62 -7.62 180) (length 5.08)
          (name "A19" (effects (font (size 1.016 1.016))))
          (number "P$22" (effects (font (size 1.016 1.016))))
        )
        (pin bidirectional line (at 7.62 -33.02 180) (length 5.08)
          (name "AUDIOIN" (effects (font (size 1.016 1.016))))
          (number "P$32" (effects (font (size 1.016 1.016))))
        )
        (pin output line (at 7.62 15.24 180) (length 5.08)
          (name "A3" (effects (font (size 1.016 1.016))))
          (number "P$13" (effects (font (size 1.016 1.016))))
        )
        (pin output line (at 7.62 -10.16 180) (length 5.08)
          (name "A15" (effects (font (size 1.016 1.016))))
          (number "P$23" (effects (font (size 1.016 1.016))))
        )
        (pin power_in line (at 7.62 -35.56 180) (length 5.08)
          (name "+5V" (effects (font (size 1.016 1.016))))
          (number "P$33" (effects (font (size 1.016 1.016))))
        )
        (pin output line (at 7.62 12.7 180) (length 5.08)
          (name "A6" (effects (font (size 1.016 1.016))))
          (number "P$14" (effects (font (size 1.016 1.016))))
        )
        (pin output line (at 7.62 -12.7 180) (length 5.08)
          (name "A14" (effects (font (size 1.016 1.016))))
          (number "P$24" (effects (font (size 1.016 1.016))))
        )
        (pin output line (at 7.62 -38.1 180) (length 5.08)
          (name "SWVCC" (effects (font (size 1.016 1.016))))
          (number "P$34" (effects (font (size 1.016 1.016))))
        )
        (pin output line (at 7.62 10.16 180) (length 5.08)
          (name "A4" (effects (font (size 1.016 1.016))))
          (number "P$15" (effects (font (size 1.016 1.016))))
        )
        (pin output line (at 7.62 -15.24 180) (length 5.08)
          (name "A13" (effects (font (size 1.016 1.016))))
          (number "P$25" (effects (font (size 1.016 1.016))))
        )
        (pin output line (at 7.62 7.62 180) (length 5.08)
          (name "A5" (effects (font (size 1.016 1.016))))
          (number "P$16" (effects (font (size 1.016 1.016))))
        )
        (pin output line (at 7.62 -17.78 180) (length 5.08)
          (name "A12" (effects (font (size 1.016 1.016))))
          (number "P$26" (effects (font (size 1.016 1.016))))
        )
        (pin output line (at 7.62 5.08 180) (length 5.08)
          (name "A0" (effects (font (size 1.016 1.016))))
          (number "P$17" (effects (font (size 1.016 1.016))))
        )
        (pin output line (at 7.62 -20.32 180) (length 5.08)
          (name "WE/" (effects (font (size 1.016 1.016))))
          (number "P$27" (effects (font (size 1.016 1.016))))
        )
        (pin output line (at 7.62 2.54 180) (length 5.08)
          (name "A7" (effects (font (size 1.016 1.016))))
          (number "P$18" (effects (font (size 1.016 1.016))))
        )
        (pin output line (at 7.62 -22.86 180) (length 5.08)
          (name "A8" (effects (font (size 1.016 1.016))))
          (number "P$28" (effects (font (size 1.016 1.016))))
        )
        (pin output line (at 7.62 0 180) (length 5.08)
          (name "A16" (effects (font (size 1.016 1.016))))
          (number "P$19" (effects (font (size 1.016 1.016))))
        )
        (pin output line (at 7.62 -25.4 180) (length 5.08)
          (name "A9" (effects (font (size 1.016 1.016))))
          (number "P$29" (effects (font (size 1.016 1.016))))
        )
      )
    )
    (symbol "atarilynx:SST39SF010A" (pin_names (offset 1.016)) (in_bom yes) (on_board yes)
      (property "Reference" "U" (id 0) (at -1.27 -24.13 0)
        (effects (font (size 1.524 1.524)))
      )
      (property "Value" "SST39SF010A" (id 1) (at 0 0 0)
        (effects (font (size 1.524 1.524)))
      )
      (property "Footprint" "" (id 2) (at 0 0 0)
        (effects (font (size 1.524 1.524)))
      )
      (property "Datasheet" "" (id 3) (at 0 0 0)
        (effects (font (size 1.524 1.524)))
      )
      (symbol "SST39SF010A_0_1"
        (rectangle (start -10.16 10.16) (end 8.89 -85.09)
          (stroke (width 0)) (fill (type none))
        )
      )
      (symbol "SST39SF010A_1_1"
        (pin input line (at -16.51 -54.61 0) (length 7.62)
          (name "A11" (effects (font (size 1.27 1.27))))
          (number "1" (effects (font (size 1.27 1.27))))
        )
        (pin input line (at -16.51 -49.53 0) (length 7.62)
          (name "A9" (effects (font (size 1.27 1.27))))
          (number "2" (effects (font (size 1.27 1.27))))
        )
        (pin input line (at -16.51 -46.99 0) (length 7.62)
          (name "A8" (effects (font (size 1.27 1.27))))
          (number "3" (effects (font (size 1.27 1.27))))
        )
        (pin input line (at -16.51 -59.69 0) (length 7.62)
          (name "A13" (effects (font (size 1.27 1.27))))
          (number "4" (effects (font (size 1.27 1.27))))
        )
        (pin input line (at -16.51 -62.23 0) (length 7.62)
          (name "A14" (effects (font (size 1.27 1.27))))
          (number "5" (effects (font (size 1.27 1.27))))
        )
        (pin input line (at -16.51 -69.85 0) (length 7.62)
          (name "A17" (effects (font (size 1.27 1.27))))
          (number "6" (effects (font (size 1.27 1.27))))
        )
        (pin input line (at -16.51 -82.55 0) (length 7.62)
          (name "WE#" (effects (font (size 1.27 1.27))))
          (number "7" (effects (font (size 1.27 1.27))))
        )
        (pin power_in non_logic (at 0 16.51 270) (length 7.62)
          (name "VDD" (effects (font (size 1.27 1.27))))
          (number "8" (effects (font (size 1.27 1.27))))
        )
        (pin input line (at -16.51 -72.39 0) (length 7.62)
          (name "A18" (effects (font (size 1.27 1.27))))
          (number "9" (effects (font (size 1.27 1.27))))
        )
        (pin input line (at -16.51 -67.31 0) (length 7.62)
          (name "A16" (effects (font (size 1.27 1.27))))
          (number "10" (effects (font (size 1.27 1.27))))
        )
        (pin input line (at -16.51 -26.67 0) (length 7.62)
          (name "A0" (effects (font (size 1.27 1.27))))
          (number "20" (effects (font (size 1.27 1.27))))
        )
        (pin input line (at -16.51 -80.01 0) (length 7.62)
          (name "CE#" (effects (font (size 1.27 1.27))))
          (number "30" (effects (font (size 1.27 1.27))))
        )
        (pin input line (at -16.51 -64.77 0) (length 7.62)
          (name "A15" (effects (font (size 1.27 1.27))))
          (number "11" (effects (font (size 1.27 1.27))))
        )
        (pin bidirectional line (at -16.51 -3.81 0) (length 7.62)
          (name "DQ0" (effects (font (size 1.27 1.27))))
          (number "21" (effects (font (size 1.27 1.27))))
        )
        (pin input line (at -16.51 -52.07 0) (length 7.62)
          (name "A10" (effects (font (size 1.27 1.27))))
          (number "31" (effects (font (size 1.27 1.27))))
        )
        (pin input line (at -16.51 -57.15 0) (length 7.62)
          (name "A12" (effects (font (size 1.27 1.27))))
          (number "12" (effects (font (size 1.27 1.27))))
        )
        (pin bidirectional line (at -16.51 -6.35 0) (length 7.62)
          (name "DQ1" (effects (font (size 1.27 1.27))))
          (number "22" (effects (font (size 1.27 1.27))))
        )
        (pin input line (at -16.51 -77.47 0) (length 7.62)
          (name "OE#" (effects (font (size 1.27 1.27))))
          (number "32" (effects (font (size 1.27 1.27))))
        )
        (pin input line (at -16.51 -44.45 0) (length 7.62)
          (name "A7" (effects (font (size 1.27 1.27))))
          (number "13" (effects (font (size 1.27 1.27))))
        )
        (pin bidirectional line (at -16.51 -8.89 0) (length 7.62)
          (name "DQ2" (effects (font (size 1.27 1.27))))
          (number "23" (effects (font (size 1.27 1.27))))
        )
        (pin input line (at -16.51 -41.91 0) (length 7.62)
          (name "A6" (effects (font (size 1.27 1.27))))
          (number "14" (effects (font (size 1.27 1.27))))
        )
        (pin power_in non_logic (at 1.27 -91.44 90) (length 7.62)
          (name "VSS" (effects (font (size 1.27 1.27))))
          (number "24" (effects (font (size 1.27 1.27))))
        )
        (pin input line (at -16.51 -39.37 0) (length 7.62)
          (name "A5" (effects (font (size 1.27 1.27))))
          (number "15" (effects (font (size 1.27 1.27))))
        )
        (pin bidirectional line (at -16.51 -11.43 0) (length 7.62)
          (name "DQ3" (effects (font (size 1.27 1.27))))
          (number "25" (effects (font (size 1.27 1.27))))
        )
        (pin input line (at -16.51 -36.83 0) (length 7.62)
          (name "A4" (effects (font (size 1.27 1.27))))
          (number "16" (effects (font (size 1.27 1.27))))
        )
        (pin bidirectional line (at -16.51 -13.97 0) (length 7.62)
          (name "DQ4" (effects (font (size 1.27 1.27))))
          (number "26" (effects (font (size 1.27 1.27))))
        )
        (pin input line (at -16.51 -34.29 0) (length 7.62)
          (name "A3" (effects (font (size 1.27 1.27))))
          (number "17" (effects (font (size 1.27 1.27))))
        )
        (pin bidirectional line (at -16.51 -16.51 0) (length 7.62)
          (name "DQ5" (effects (font (size 1.27 1.27))))
          (number "27" (effects (font (size 1.27 1.27))))
        )
        (pin input line (at -16.51 -31.75 0) (length 7.62)
          (name "A2" (effects (font (size 1.27 1.27))))
          (number "18" (effects (font (size 1.27 1.27))))
        )
        (pin bidirectional line (at -16.51 -19.05 0) (length 7.62)
          (name "DQ6" (effects (font (size 1.27 1.27))))
          (number "28" (effects (font (size 1.27 1.27))))
        )
        (pin input line (at -16.51 -29.21 0) (length 7.62)
          (name "A1" (effects (font (size 1.27 1.27))))
          (number "19" (effects (font (size 1.27 1.27))))
        )
        (pin bidirectional line (at -16.51 -21.59 0) (length 7.62)
          (name "DQ7" (effects (font (size 1.27 1.27))))
          (number "29" (effects (font (size 1.27 1.27))))
        )
      )
    )
  )

  (junction (at 76.2 135.89) (diameter 1.016) (color 0 0 0 0))
  (junction (at 105.41 148.59) (diameter 1.016) (color 0 0 0 0))
  (junction (at 115.57 86.36) (diameter 1.016) (color 0 0 0 0))
  (junction (at 118.11 104.14) (diameter 1.016) (color 0 0 0 0))
  (junction (at 120.65 88.9) (diameter 1.016) (color 0 0 0 0))
  (junction (at 123.19 139.7) (diameter 1.016) (color 0 0 0 0))
  (junction (at 143.51 43.18) (diameter 1.016) (color 0 0 0 0))
  (junction (at 144.78 151.13) (diameter 1.016) (color 0 0 0 0))
  (junction (at 157.48 105.41) (diameter 1.016) (color 0 0 0 0))
  (junction (at 170.18 105.41) (diameter 1.016) (color 0 0 0 0))
  (junction (at 190.5 63.5) (diameter 1.016) (color 0 0 0 0))
  (junction (at 190.5 72.39) (diameter 1.016) (color 0 0 0 0))
  (junction (at 190.5 80.01) (diameter 1.016) (color 0 0 0 0))
  (junction (at 190.5 114.3) (diameter 1.016) (color 0 0 0 0))
  (junction (at 200.66 114.3) (diameter 1.016) (color 0 0 0 0))
  (junction (at 203.2 60.96) (diameter 1.016) (color 0 0 0 0))
  (junction (at 204.47 97.79) (diameter 1.016) (color 0 0 0 0))
  (junction (at 204.47 100.33) (diameter 1.016) (color 0 0 0 0))
  (junction (at 204.47 102.87) (diameter 1.016) (color 0 0 0 0))
  (junction (at 204.47 114.3) (diameter 1.016) (color 0 0 0 0))
  (junction (at 208.28 69.85) (diameter 1.016) (color 0 0 0 0))

  (wire (pts (xy 72.39 59.69) (xy 85.09 59.69))
    (stroke (width 0) (type solid) (color 0 0 0 0))
  )
  (wire (pts (xy 72.39 82.55) (xy 123.19 82.55))
    (stroke (width 0) (type solid) (color 0 0 0 0))
  )
  (wire (pts (xy 72.39 105.41) (xy 88.9 105.41))
    (stroke (width 0) (type solid) (color 0 0 0 0))
  )
  (wire (pts (xy 72.39 107.95) (xy 90.17 107.95))
    (stroke (width 0) (type solid) (color 0 0 0 0))
  )
  (wire (pts (xy 72.39 110.49) (xy 91.44 110.49))
    (stroke (width 0) (type solid) (color 0 0 0 0))
  )
  (wire (pts (xy 72.39 113.03) (xy 92.71 113.03))
    (stroke (width 0) (type solid) (color 0 0 0 0))
  )
  (wire (pts (xy 72.39 115.57) (xy 93.98 115.57))
    (stroke (width 0) (type solid) (color 0 0 0 0))
  )
  (wire (pts (xy 72.39 118.11) (xy 95.25 118.11))
    (stroke (width 0) (type solid) (color 0 0 0 0))
  )
  (wire (pts (xy 72.39 120.65) (xy 96.52 120.65))
    (stroke (width 0) (type solid) (color 0 0 0 0))
  )
  (wire (pts (xy 72.39 123.19) (xy 97.79 123.19))
    (stroke (width 0) (type solid) (color 0 0 0 0))
  )
  (wire (pts (xy 72.39 125.73) (xy 78.74 125.73))
    (stroke (width 0) (type solid) (color 0 0 0 0))
  )
  (wire (pts (xy 72.39 128.27) (xy 101.6 128.27))
    (stroke (width 0) (type solid) (color 0 0 0 0))
  )
  (wire (pts (xy 72.39 130.81) (xy 100.33 130.81))
    (stroke (width 0) (type solid) (color 0 0 0 0))
  )
  (wire (pts (xy 72.39 135.89) (xy 76.2 135.89))
    (stroke (width 0) (type solid) (color 0 0 0 0))
  )
  (wire (pts (xy 72.39 138.43) (xy 83.82 138.43))
    (stroke (width 0) (type solid) (color 0 0 0 0))
  )
  (wire (pts (xy 76.2 135.89) (xy 76.2 140.97))
    (stroke (width 0) (type solid) (color 0 0 0 0))
  )
  (wire (pts (xy 76.2 135.89) (xy 109.22 135.89))
    (stroke (width 0) (type solid) (color 0 0 0 0))
  )
  (wire (pts (xy 76.2 140.97) (xy 72.39 140.97))
    (stroke (width 0) (type solid) (color 0 0 0 0))
  )
  (wire (pts (xy 78.74 125.73) (xy 78.74 142.24))
    (stroke (width 0) (type solid) (color 0 0 0 0))
  )
  (wire (pts (xy 78.74 142.24) (xy 127 142.24))
    (stroke (width 0) (type solid) (color 0 0 0 0))
  )
  (wire (pts (xy 83.82 138.43) (xy 83.82 148.59))
    (stroke (width 0) (type solid) (color 0 0 0 0))
  )
  (wire (pts (xy 85.09 59.69) (xy 85.09 139.7))
    (stroke (width 0) (type solid) (color 0 0 0 0))
  )
  (wire (pts (xy 85.09 139.7) (xy 123.19 139.7))
    (stroke (width 0) (type solid) (color 0 0 0 0))
  )
  (wire (pts (xy 88.9 80.01) (xy 72.39 80.01))
    (stroke (width 0) (type solid) (color 0 0 0 0))
  )
  (wire (pts (xy 88.9 81.28) (xy 88.9 80.01))
    (stroke (width 0) (type solid) (color 0 0 0 0))
  )
  (wire (pts (xy 88.9 105.41) (xy 88.9 124.46))
    (stroke (width 0) (type solid) (color 0 0 0 0))
  )
  (wire (pts (xy 88.9 124.46) (xy 127 124.46))
    (stroke (width 0) (type solid) (color 0 0 0 0))
  )
  (wire (pts (xy 90.17 77.47) (xy 72.39 77.47))
    (stroke (width 0) (type solid) (color 0 0 0 0))
  )
  (wire (pts (xy 90.17 78.74) (xy 90.17 77.47))
    (stroke (width 0) (type solid) (color 0 0 0 0))
  )
  (wire (pts (xy 90.17 107.95) (xy 90.17 127))
    (stroke (width 0) (type solid) (color 0 0 0 0))
  )
  (wire (pts (xy 90.17 127) (xy 127 127))
    (stroke (width 0) (type solid) (color 0 0 0 0))
  )
  (wire (pts (xy 91.44 102.87) (xy 72.39 102.87))
    (stroke (width 0) (type solid) (color 0 0 0 0))
  )
  (wire (pts (xy 91.44 104.14) (xy 91.44 102.87))
    (stroke (width 0) (type solid) (color 0 0 0 0))
  )
  (wire (pts (xy 91.44 110.49) (xy 91.44 129.54))
    (stroke (width 0) (type solid) (color 0 0 0 0))
  )
  (wire (pts (xy 91.44 129.54) (xy 127 129.54))
    (stroke (width 0) (type solid) (color 0 0 0 0))
  )
  (wire (pts (xy 92.71 72.39) (xy 72.39 72.39))
    (stroke (width 0) (type solid) (color 0 0 0 0))
  )
  (wire (pts (xy 92.71 76.2) (xy 92.71 72.39))
    (stroke (width 0) (type solid) (color 0 0 0 0))
  )
  (wire (pts (xy 92.71 113.03) (xy 92.71 132.08))
    (stroke (width 0) (type solid) (color 0 0 0 0))
  )
  (wire (pts (xy 92.71 132.08) (xy 127 132.08))
    (stroke (width 0) (type solid) (color 0 0 0 0))
  )
  (wire (pts (xy 92.71 133.35) (xy 72.39 133.35))
    (stroke (width 0) (type solid) (color 0 0 0 0))
  )
  (wire (pts (xy 92.71 133.35) (xy 92.71 147.32))
    (stroke (width 0) (type solid) (color 0 0 0 0))
  )
  (wire (pts (xy 93.98 92.71) (xy 72.39 92.71))
    (stroke (width 0) (type solid) (color 0 0 0 0))
  )
  (wire (pts (xy 93.98 101.6) (xy 93.98 92.71))
    (stroke (width 0) (type solid) (color 0 0 0 0))
  )
  (wire (pts (xy 93.98 115.57) (xy 93.98 121.92))
    (stroke (width 0) (type solid) (color 0 0 0 0))
  )
  (wire (pts (xy 93.98 121.92) (xy 127 121.92))
    (stroke (width 0) (type solid) (color 0 0 0 0))
  )
  (wire (pts (xy 95.25 67.31) (xy 72.39 67.31))
    (stroke (width 0) (type solid) (color 0 0 0 0))
  )
  (wire (pts (xy 95.25 73.66) (xy 95.25 67.31))
    (stroke (width 0) (type solid) (color 0 0 0 0))
  )
  (wire (pts (xy 95.25 118.11) (xy 95.25 119.38))
    (stroke (width 0) (type solid) (color 0 0 0 0))
  )
  (wire (pts (xy 95.25 119.38) (xy 127 119.38))
    (stroke (width 0) (type solid) (color 0 0 0 0))
  )
  (wire (pts (xy 96.52 97.79) (xy 72.39 97.79))
    (stroke (width 0) (type solid) (color 0 0 0 0))
  )
  (wire (pts (xy 96.52 99.06) (xy 96.52 97.79))
    (stroke (width 0) (type solid) (color 0 0 0 0))
  )
  (wire (pts (xy 96.52 116.84) (xy 127 116.84))
    (stroke (width 0) (type solid) (color 0 0 0 0))
  )
  (wire (pts (xy 96.52 120.65) (xy 96.52 116.84))
    (stroke (width 0) (type solid) (color 0 0 0 0))
  )
  (wire (pts (xy 97.79 64.77) (xy 72.39 64.77))
    (stroke (width 0) (type solid) (color 0 0 0 0))
  )
  (wire (pts (xy 97.79 68.58) (xy 97.79 64.77))
    (stroke (width 0) (type solid) (color 0 0 0 0))
  )
  (wire (pts (xy 97.79 68.58) (xy 127 68.58))
    (stroke (width 0) (type solid) (color 0 0 0 0))
  )
  (wire (pts (xy 97.79 114.3) (xy 127 114.3))
    (stroke (width 0) (type solid) (color 0 0 0 0))
  )
  (wire (pts (xy 97.79 123.19) (xy 97.79 114.3))
    (stroke (width 0) (type solid) (color 0 0 0 0))
  )
  (wire (pts (xy 99.06 66.04) (xy 99.06 69.85))
    (stroke (width 0) (type solid) (color 0 0 0 0))
  )
  (wire (pts (xy 99.06 69.85) (xy 72.39 69.85))
    (stroke (width 0) (type solid) (color 0 0 0 0))
  )
  (wire (pts (xy 99.06 111.76) (xy 99.06 143.51))
    (stroke (width 0) (type solid) (color 0 0 0 0))
  )
  (wire (pts (xy 100.33 63.5) (xy 100.33 74.93))
    (stroke (width 0) (type solid) (color 0 0 0 0))
  )
  (wire (pts (xy 100.33 74.93) (xy 72.39 74.93))
    (stroke (width 0) (type solid) (color 0 0 0 0))
  )
  (wire (pts (xy 100.33 95.25) (xy 72.39 95.25))
    (stroke (width 0) (type solid) (color 0 0 0 0))
  )
  (wire (pts (xy 100.33 96.52) (xy 100.33 95.25))
    (stroke (width 0) (type solid) (color 0 0 0 0))
  )
  (wire (pts (xy 100.33 109.22) (xy 127 109.22))
    (stroke (width 0) (type solid) (color 0 0 0 0))
  )
  (wire (pts (xy 100.33 130.81) (xy 100.33 109.22))
    (stroke (width 0) (type solid) (color 0 0 0 0))
  )
  (wire (pts (xy 101.6 62.23) (xy 72.39 62.23))
    (stroke (width 0) (type solid) (color 0 0 0 0))
  )
  (wire (pts (xy 101.6 71.12) (xy 101.6 62.23))
    (stroke (width 0) (type solid) (color 0 0 0 0))
  )
  (wire (pts (xy 101.6 90.17) (xy 72.39 90.17))
    (stroke (width 0) (type solid) (color 0 0 0 0))
  )
  (wire (pts (xy 101.6 93.98) (xy 101.6 90.17))
    (stroke (width 0) (type solid) (color 0 0 0 0))
  )
  (wire (pts (xy 101.6 106.68) (xy 127 106.68))
    (stroke (width 0) (type solid) (color 0 0 0 0))
  )
  (wire (pts (xy 101.6 128.27) (xy 101.6 106.68))
    (stroke (width 0) (type solid) (color 0 0 0 0))
  )
  (wire (pts (xy 102.87 87.63) (xy 72.39 87.63))
    (stroke (width 0) (type solid) (color 0 0 0 0))
  )
  (wire (pts (xy 102.87 91.44) (xy 102.87 87.63))
    (stroke (width 0) (type solid) (color 0 0 0 0))
  )
  (wire (pts (xy 105.41 86.36) (xy 105.41 100.33))
    (stroke (width 0) (type solid) (color 0 0 0 0))
  )
  (wire (pts (xy 105.41 100.33) (xy 72.39 100.33))
    (stroke (width 0) (type solid) (color 0 0 0 0))
  )
  (wire (pts (xy 105.41 147.32) (xy 105.41 148.59))
    (stroke (width 0) (type solid) (color 0 0 0 0))
  )
  (wire (pts (xy 105.41 148.59) (xy 83.82 148.59))
    (stroke (width 0) (type solid) (color 0 0 0 0))
  )
  (wire (pts (xy 107.95 85.09) (xy 72.39 85.09))
    (stroke (width 0) (type solid) (color 0 0 0 0))
  )
  (wire (pts (xy 107.95 88.9) (xy 107.95 85.09))
    (stroke (width 0) (type solid) (color 0 0 0 0))
  )
  (wire (pts (xy 109.22 43.18) (xy 143.51 43.18))
    (stroke (width 0) (type solid) (color 0 0 0 0))
  )
  (wire (pts (xy 109.22 135.89) (xy 109.22 43.18))
    (stroke (width 0) (type solid) (color 0 0 0 0))
  )
  (wire (pts (xy 115.57 35.56) (xy 203.2 35.56))
    (stroke (width 0) (type solid) (color 0 0 0 0))
  )
  (wire (pts (xy 115.57 86.36) (xy 105.41 86.36))
    (stroke (width 0) (type solid) (color 0 0 0 0))
  )
  (wire (pts (xy 115.57 86.36) (xy 115.57 35.56))
    (stroke (width 0) (type solid) (color 0 0 0 0))
  )
  (wire (pts (xy 118.11 38.1) (xy 118.11 104.14))
    (stroke (width 0) (type solid) (color 0 0 0 0))
  )
  (wire (pts (xy 118.11 104.14) (xy 91.44 104.14))
    (stroke (width 0) (type solid) (color 0 0 0 0))
  )
  (wire (pts (xy 120.65 40.64) (xy 120.65 88.9))
    (stroke (width 0) (type solid) (color 0 0 0 0))
  )
  (wire (pts (xy 120.65 88.9) (xy 107.95 88.9))
    (stroke (width 0) (type solid) (color 0 0 0 0))
  )
  (wire (pts (xy 123.19 82.55) (xy 123.19 137.16))
    (stroke (width 0) (type solid) (color 0 0 0 0))
  )
  (wire (pts (xy 123.19 137.16) (xy 127 137.16))
    (stroke (width 0) (type solid) (color 0 0 0 0))
  )
  (wire (pts (xy 123.19 139.7) (xy 123.19 151.13))
    (stroke (width 0) (type solid) (color 0 0 0 0))
  )
  (wire (pts (xy 123.19 139.7) (xy 127 139.7))
    (stroke (width 0) (type solid) (color 0 0 0 0))
  )
  (wire (pts (xy 123.19 151.13) (xy 144.78 151.13))
    (stroke (width 0) (type solid) (color 0 0 0 0))
  )
  (wire (pts (xy 127 63.5) (xy 100.33 63.5))
    (stroke (width 0) (type solid) (color 0 0 0 0))
  )
  (wire (pts (xy 127 66.04) (xy 99.06 66.04))
    (stroke (width 0) (type solid) (color 0 0 0 0))
  )
  (wire (pts (xy 127 71.12) (xy 101.6 71.12))
    (stroke (width 0) (type solid) (color 0 0 0 0))
  )
  (wire (pts (xy 127 73.66) (xy 95.25 73.66))
    (stroke (width 0) (type solid) (color 0 0 0 0))
  )
  (wire (pts (xy 127 76.2) (xy 92.71 76.2))
    (stroke (width 0) (type solid) (color 0 0 0 0))
  )
  (wire (pts (xy 127 78.74) (xy 90.17 78.74))
    (stroke (width 0) (type solid) (color 0 0 0 0))
  )
  (wire (pts (xy 127 81.28) (xy 88.9 81.28))
    (stroke (width 0) (type solid) (color 0 0 0 0))
  )
  (wire (pts (xy 127 86.36) (xy 115.57 86.36))
    (stroke (width 0) (type solid) (color 0 0 0 0))
  )
  (wire (pts (xy 127 88.9) (xy 120.65 88.9))
    (stroke (width 0) (type solid) (color 0 0 0 0))
  )
  (wire (pts (xy 127 91.44) (xy 102.87 91.44))
    (stroke (width 0) (type solid) (color 0 0 0 0))
  )
  (wire (pts (xy 127 93.98) (xy 101.6 93.98))
    (stroke (width 0) (type solid) (color 0 0 0 0))
  )
  (wire (pts (xy 127 96.52) (xy 100.33 96.52))
    (stroke (width 0) (type solid) (color 0 0 0 0))
  )
  (wire (pts (xy 127 99.06) (xy 96.52 99.06))
    (stroke (width 0) (type solid) (color 0 0 0 0))
  )
  (wire (pts (xy 127 101.6) (xy 93.98 101.6))
    (stroke (width 0) (type solid) (color 0 0 0 0))
  )
  (wire (pts (xy 127 104.14) (xy 118.11 104.14))
    (stroke (width 0) (type solid) (color 0 0 0 0))
  )
  (wire (pts (xy 127 111.76) (xy 99.06 111.76))
    (stroke (width 0) (type solid) (color 0 0 0 0))
  )
  (wire (pts (xy 143.51 43.18) (xy 190.5 43.18))
    (stroke (width 0) (type solid) (color 0 0 0 0))
  )
  (wire (pts (xy 144.78 151.13) (xy 190.5 151.13))
    (stroke (width 0) (type solid) (color 0 0 0 0))
  )
  (wire (pts (xy 157.48 69.85) (xy 157.48 105.41))
    (stroke (width 0) (type solid) (color 0 0 0 0))
  )
  (wire (pts (xy 157.48 69.85) (xy 208.28 69.85))
    (stroke (width 0) (type solid) (color 0 0 0 0))
  )
  (wire (pts (xy 157.48 105.41) (xy 157.48 148.59))
    (stroke (width 0) (type solid) (color 0 0 0 0))
  )
  (wire (pts (xy 157.48 148.59) (xy 105.41 148.59))
    (stroke (width 0) (type solid) (color 0 0 0 0))
  )
  (wire (pts (xy 165.1 80.01) (xy 165.1 100.33))
    (stroke (width 0) (type solid) (color 0 0 0 0))
  )
  (wire (pts (xy 165.1 80.01) (xy 190.5 80.01))
    (stroke (width 0) (type solid) (color 0 0 0 0))
  )
  (wire (pts (xy 165.1 100.33) (xy 170.18 100.33))
    (stroke (width 0) (type solid) (color 0 0 0 0))
  )
  (wire (pts (xy 167.64 38.1) (xy 118.11 38.1))
    (stroke (width 0) (type solid) (color 0 0 0 0))
  )
  (wire (pts (xy 167.64 97.79) (xy 167.64 38.1))
    (stroke (width 0) (type solid) (color 0 0 0 0))
  )
  (wire (pts (xy 170.18 40.64) (xy 120.65 40.64))
    (stroke (width 0) (type solid) (color 0 0 0 0))
  )
  (wire (pts (xy 170.18 40.64) (xy 170.18 90.17))
    (stroke (width 0) (type solid) (color 0 0 0 0))
  )
  (wire (pts (xy 170.18 97.79) (xy 167.64 97.79))
    (stroke (width 0) (type solid) (color 0 0 0 0))
  )
  (wire (pts (xy 170.18 105.41) (xy 157.48 105.41))
    (stroke (width 0) (type solid) (color 0 0 0 0))
  )
  (wire (pts (xy 170.18 111.76) (xy 170.18 105.41))
    (stroke (width 0) (type solid) (color 0 0 0 0))
  )
  (wire (pts (xy 190.5 43.18) (xy 190.5 63.5))
    (stroke (width 0) (type solid) (color 0 0 0 0))
  )
  (wire (pts (xy 190.5 63.5) (xy 190.5 72.39))
    (stroke (width 0) (type solid) (color 0 0 0 0))
  )
  (wire (pts (xy 190.5 63.5) (xy 210.82 63.5))
    (stroke (width 0) (type solid) (color 0 0 0 0))
  )
  (wire (pts (xy 190.5 72.39) (xy 190.5 80.01))
    (stroke (width 0) (type solid) (color 0 0 0 0))
  )
  (wire (pts (xy 190.5 80.01) (xy 190.5 85.09))
    (stroke (width 0) (type solid) (color 0 0 0 0))
  )
  (wire (pts (xy 190.5 114.3) (xy 190.5 110.49))
    (stroke (width 0) (type solid) (color 0 0 0 0))
  )
  (wire (pts (xy 190.5 114.3) (xy 200.66 114.3))
    (stroke (width 0) (type solid) (color 0 0 0 0))
  )
  (wire (pts (xy 190.5 151.13) (xy 190.5 114.3))
    (stroke (width 0) (type solid) (color 0 0 0 0))
  )
  (wire (pts (xy 198.12 97.79) (xy 198.12 111.76))
    (stroke (width 0) (type solid) (color 0 0 0 0))
  )
  (wire (pts (xy 198.12 111.76) (xy 170.18 111.76))
    (stroke (width 0) (type solid) (color 0 0 0 0))
  )
  (wire (pts (xy 200.66 55.88) (xy 210.82 55.88))
    (stroke (width 0) (type solid) (color 0 0 0 0))
  )
  (wire (pts (xy 200.66 114.3) (xy 200.66 55.88))
    (stroke (width 0) (type solid) (color 0 0 0 0))
  )
  (wire (pts (xy 200.66 114.3) (xy 204.47 114.3))
    (stroke (width 0) (type solid) (color 0 0 0 0))
  )
  (wire (pts (xy 203.2 35.56) (xy 203.2 60.96))
    (stroke (width 0) (type solid) (color 0 0 0 0))
  )
  (wire (pts (xy 203.2 60.96) (xy 203.2 90.17))
    (stroke (width 0) (type solid) (color 0 0 0 0))
  )
  (wire (pts (xy 203.2 60.96) (xy 210.82 60.96))
    (stroke (width 0) (type solid) (color 0 0 0 0))
  )
  (wire (pts (xy 203.2 90.17) (xy 204.47 90.17))
    (stroke (width 0) (type solid) (color 0 0 0 0))
  )
  (wire (pts (xy 204.47 97.79) (xy 204.47 92.71))
    (stroke (width 0) (type solid) (color 0 0 0 0))
  )
  (wire (pts (xy 204.47 100.33) (xy 204.47 97.79))
    (stroke (width 0) (type solid) (color 0 0 0 0))
  )
  (wire (pts (xy 204.47 102.87) (xy 204.47 100.33))
    (stroke (width 0) (type solid) (color 0 0 0 0))
  )
  (wire (pts (xy 204.47 114.3) (xy 204.47 102.87))
    (stroke (width 0) (type solid) (color 0 0 0 0))
  )
  (wire (pts (xy 204.47 114.3) (xy 224.79 114.3))
    (stroke (width 0) (type solid) (color 0 0 0 0))
  )
  (wire (pts (xy 208.28 58.42) (xy 208.28 69.85))
    (stroke (width 0) (type solid) (color 0 0 0 0))
  )
  (wire (pts (xy 208.28 69.85) (xy 232.41 69.85))
    (stroke (width 0) (type solid) (color 0 0 0 0))
  )
  (wire (pts (xy 210.82 58.42) (xy 208.28 58.42))
    (stroke (width 0) (type solid) (color 0 0 0 0))
  )
  (wire (pts (xy 224.79 72.39) (xy 190.5 72.39))
    (stroke (width 0) (type solid) (color 0 0 0 0))
  )
  (wire (pts (xy 224.79 72.39) (xy 224.79 85.09))
    (stroke (width 0) (type solid) (color 0 0 0 0))
  )
  (wire (pts (xy 224.79 114.3) (xy 224.79 107.95))
    (stroke (width 0) (type solid) (color 0 0 0 0))
  )
  (wire (pts (xy 232.41 69.85) (xy 232.41 97.79))
    (stroke (width 0) (type solid) (color 0 0 0 0))
  )

  (text "A0" (at 220.98 62.23 180)
    (effects (font (size 1.27 1.27)) (justify right bottom))
  )
  (text "5V" (at 220.98 64.77 180)
    (effects (font (size 1.27 1.27)) (justify right bottom))
  )
  (text "GND" (at 222.25 57.15 180)
    (effects (font (size 1.27 1.27)) (justify right bottom))
  )
  (text "AUDIN" (at 224.79 59.69 180)
    (effects (font (size 1.27 1.27)) (justify right bottom))
  )

  (symbol (lib_id "Jumper:Jumper_3_Bridged12") (at 99.06 147.32 0) (mirror x) (unit 1)
    (in_bom yes) (on_board yes)
    (uuid "49e2e5b8-4f40-418d-ae46-8bcfd8e86c0f")
    (property "Reference" "JP1" (id 0) (at 99.06 151.13 0))
    (property "Value" "Jumper_3_Bridged12" (id 1) (at 99.06 153.67 0))
    (property "Footprint" "Jumper:SolderJumper-3_P1.3mm_Bridged12_Pad1.0x1.5mm_NumberLabels" (id 2) (at 99.06 147.32 0)
      (effects (font (size 1.27 1.27)) hide)
    )
    (property "Datasheet" "~" (id 3) (at 99.06 147.32 0)
      (effects (font (size 1.27 1.27)) hide)
    )
  )

  (symbol (lib_id "Connector_Generic:Conn_01x04") (at 215.9 58.42 0) (unit 1)
    (in_bom yes) (on_board yes)
    (uuid "ddd88b4e-c502-436f-a958-c1af12c3fcd2")
    (property "Reference" "J1" (id 0) (at 214.63 52.07 0)
      (effects (font (size 1.27 1.27)) (justify left))
    )
    (property "Value" "Conn_01x04" (id 1) (at 209.55 67.31 0)
      (effects (font (size 1.27 1.27)) (justify left))
    )
    (property "Footprint" "Connector_PinHeader_2.54mm:PinHeader_1x04_P2.54mm_Vertical" (id 2) (at 215.9 58.42 0)
      (effects (font (size 1.27 1.27)) hide)
    )
    (property "Datasheet" "~" (id 3) (at 215.9 58.42 0)
      (effects (font (size 1.27 1.27)) hide)
    )
  )

  (symbol (lib_id "Cart-rescue:24AA256SN") (at 217.17 97.79 0) (unit 1)
    (in_bom yes) (on_board yes)
    (uuid "00000000-0000-0000-0000-000055817e2d")
    (property "Reference" "IC1" (id 0) (at 207.01 86.36 0)
      (effects (font (size 1.27 1.27)) (justify left bottom))
    )
    (property "Value" "24AA512" (id 1) (at 207.01 107.95 0)
      (effects (font (size 1.27 1.27)) (justify left bottom))
    )
    (property "Footprint" "Housings_SSOP:TSSOP-8_4.4x3mm_Pitch0.65mm" (id 2) (at 217.17 93.98 0)
      (effects (font (size 1.27 1.27)) hide)
    )
    (property "Datasheet" "" (id 3) (at 217.17 97.79 0)
      (effects (font (size 1.524 1.524)))
    )
    (property "manf#" "24AA512-I/SN" (id 4) (at 217.17 97.79 0)
      (effects (font (size 1.524 1.524)) hide)
    )
  )

  (symbol (lib_id "Cart-rescue:93LCS66SM") (at 182.88 97.79 0) (unit 1)
    (in_bom yes) (on_board yes)
    (uuid "00000000-0000-0000-0000-000055aa53c8")
    (property "Reference" "IC2" (id 0) (at 172.72 86.36 0)
      (effects (font (size 1.27 1.27)) (justify left bottom))
    )
    (property "Value" "93C46C" (id 1) (at 172.72 110.49 0)
      (effects (font (size 1.27 1.27)) (justify left bottom))
    )
    (property "Footprint" "Housings_SSOP:TSSOP-8_4.4x3mm_Pitch0.65mm" (id 2) (at 182.88 93.98 0)
      (effects (font (size 1.27 1.27)) hide)
    )
    (property "Datasheet" "" (id 3) (at 182.88 97.79 0)
      (effects (font (size 1.524 1.524)))
    )
    (property "manf#" "93C46C-I/ST" (id 4) (at 182.88 97.79 0)
      (effects (font (size 1.524 1.524)) hide)
    )
    (property "Fieldname" "Value" (id 5) (at 182.88 97.79 0)
      (effects (font (size 1.524 1.524)) hide)
    )
  )

  (symbol (lib_id "atarilynx:LYNXCART") (at 64.77 105.41 0) (unit 1)
    (in_bom yes) (on_board yes)
    (uuid "00000000-0000-0000-0000-0000551bbe29")
    (property "Reference" "CON1" (id 0) (at 69.85 55.88 0))
    (property "Value" "LYNXCART" (id 1) (at 59.69 55.88 0))
    (property "Footprint" "TsopCart:atarilynx-LYNXCART" (id 2) (at 64.77 101.6 0)
      (effects (font (size 1.27 1.27)) hide)
    )
    (property "Datasheet" "" (id 3) (at 64.77 105.41 0)
      (effects (font (size 1.524 1.524)))
    )
  )

  (symbol (lib_id "atarilynx:SST39SF010A") (at 143.51 59.69 0) (unit 1)
    (in_bom yes) (on_board yes)
    (uuid "00000000-0000-0000-0000-0000551bd38a")
    (property "Reference" "U1" (id 0) (at 142.24 83.82 0)
      (effects (font (size 1.524 1.524)))
    )
    (property "Value" "SST39SF040-70-4C-WHE" (id 1) (at 143.51 57.15 0)
      (effects (font (size 1.524 1.524)))
    )
    (property "Footprint" "TsopCart:TSOP32" (id 2) (at 143.51 59.69 0)
      (effects (font (size 1.524 1.524)))
    )
    (property "Datasheet" "" (id 3) (at 143.51 59.69 0)
      (effects (font (size 1.524 1.524)))
    )
    (property "manf#" "SST39SF040-55-4I-NHE" (id 4) (at 143.51 59.69 0)
      (effects (font (size 1.524 1.524)) hide)
    )
    (property "Fieldname" "Value" (id 5) (at 143.51 59.69 0)
      (effects (font (size 1.524 1.524)) hide)
    )
  )

  (sheet_instances
    (path "/" (page "1"))
  )

  (symbol_instances
    (path "/00000000-0000-0000-0000-0000551bbe29"
      (reference "CON1") (unit 1) (value "LYNXCART") (footprint "TsopCart:atarilynx-LYNXCART")
    )
    (path "/00000000-0000-0000-0000-000055817e2d"
      (reference "IC1") (unit 1) (value "24AA512") (footprint "Housings_SSOP:TSSOP-8_4.4x3mm_Pitch0.65mm")
    )
    (path "/00000000-0000-0000-0000-000055aa53c8"
      (reference "IC2") (unit 1) (value "93C46C") (footprint "Housings_SSOP:TSSOP-8_4.4x3mm_Pitch0.65mm")
    )
    (path "/ddd88b4e-c502-436f-a958-c1af12c3fcd2"
      (reference "J1") (unit 1) (value "Conn_01x04") (footprint "Connector_PinHeader_2.54mm:PinHeader_1x04_P2.54mm_Vertical")
    )
    (path "/49e2e5b8-4f40-418d-ae46-8bcfd8e86c0f"
      (reference "JP1") (unit 1) (value "Jumper_3_Bridged12") (footprint "Jumper:SolderJumper-3_P1.3mm_Bridged12_Pad1.0x1.5mm_NumberLabels")
    )
    (path "/00000000-0000-0000-0000-0000551bd38a"
      (reference "U1") (unit 1) (value "SST39SF040-70-4C-WHE") (footprint "TsopCart:TSOP32")
    )
  )
)
