PCBNEW-LibModule-V1  ke 17. kesäkuuta 2015 09.17.57
# encoding utf-8
Units mm
$INDEX
atarilynx-LYNXCART
pin11
$EndINDEX
$MODULE atarilynx-LYNXCART
Po 0 0 0 15 5581110D 00000000 ~~
Li atarilynx-LYNXCART
Cd ATARI LYNX CART CONNECTOR
Kw ATARI LYNX CART CONNECTOR
Sc 0
AR 
Op 0 0 0
At SMD
T0 6.35 -26.67 1.524 1.524 0 0.15 N V 21 N "Ref**"
T1 15.24 -26.67 1.524 1.524 0 0.15 N V 21 N "Val**"
DS -6.49986 -28.74772 54.49824 -28.74772 0.127 21
DS 54.49824 -28.74772 54.49824 28.74772 0.127 21
DS 54.49824 28.74772 -6.49986 28.74772 0.127 21
DS 31.75 -27.94 31.75 -26.67 0.127 21
DS 31.75 27.94 31.75 26.67 0.127 21
DS -6.49986 -28.4988 -6.49986 28.74772 0.127 21
$PAD
Sh "P$1" R 8 1.2 0 0 0
Dr 0 0 0
At SMD N 00440001
Ne 0 ""
Po -1.3 -26.21788
$EndPAD
$PAD
Sh "P$2" R 7.5 1.2 0 0 0
Dr 0 0 0
At SMD N 00440001
Ne 0 ""
Po -1 -24.62784
$EndPAD
$PAD
Sh "P$3" R 7.5 1.2 0 0 0
Dr 0 0 0
At SMD N 00400001
Ne 0 ""
Po -1 -23.04034
$EndPAD
$PAD
Sh "P$4" R 7.5 1.2 0 0 0
Dr 0 0 0
At SMD N 00400001
Ne 0 ""
Po -1 -21.4503
$EndPAD
$PAD
Sh "P$5" R 7.5 1.2 0 0 0
Dr 0 0 0
At SMD N 00400001
Ne 0 ""
Po -1 -19.86026
$EndPAD
$PAD
Sh "P$6" R 7.5 1.2 0 0 0
Dr 0 0 0
At SMD N 00400001
Ne 0 ""
Po -1 -18.27276
$EndPAD
$PAD
Sh "P$7" R 7.5 1.2 0 0 0
Dr 0 0 0
At SMD N 00400001
Ne 0 ""
Po -1 -16.68272
$EndPAD
$PAD
Sh "P$8" R 7.5 1.2 0 0 0
Dr 0 0 0
At SMD N 00400001
Ne 0 ""
Po -1 -15.09522
$EndPAD
$PAD
Sh "P$9" R 7.5 1.2 0 0 0
Dr 0 0 0
At SMD N 00400001
Ne 0 ""
Po -1 -13.50518
$EndPAD
$PAD
Sh "P$10" R 7.5 1.2 0 0 0
Dr 0 0 0
At SMD N 00400001
Ne 0 ""
Po -1 -11.91514
$EndPAD
$PAD
Sh "P$11" R 7.5 1.2 0 0 0
Dr 0 0 0
At SMD N 00400001
Ne 0 ""
Po -1 -10.32764
$EndPAD
$PAD
Sh "P$12" R 7.5 1.2 0 0 0
Dr 0 0 0
At SMD N 00400001
Ne 0 ""
Po -1 -8.7376
$EndPAD
$PAD
Sh "P$13" R 7.5 1.2 0 0 0
Dr 0 0 0
At SMD N 00400001
Ne 0 ""
Po -1 -7.1501
$EndPAD
$PAD
Sh "P$14" R 7.5 1.2 0 0 0
Dr 0 0 0
At SMD N 00400001
Ne 0 ""
Po -1 -5.56006
$EndPAD
$PAD
Sh "P$15" R 7.5 1.2 0 0 0
Dr 0 0 0
At SMD N 00400001
Ne 0 ""
Po -1 -3.97002
$EndPAD
$PAD
Sh "P$16" R 7.5 1.2 0 0 0
Dr 0 0 0
At SMD N 00400001
Ne 0 ""
Po -1 -2.38252
$EndPAD
$PAD
Sh "P$17" R 7.5 1.2 0 0 0
Dr 0 0 0
At SMD N 00400001
Ne 0 ""
Po -1 -0.79248
$EndPAD
$PAD
Sh "P$18" R 7.5 1.2 0 0 0
Dr 0 0 0
At SMD N 00400001
Ne 0 ""
Po -1 0.79248
$EndPAD
$PAD
Sh "P$19" R 7.5 1.2 0 0 0
Dr 0 0 0
At SMD N 00400001
Ne 0 ""
Po -1 2.38252
$EndPAD
$PAD
Sh "P$20" R 7.5 1.2 0 0 0
Dr 0 0 0
At SMD N 00400001
Ne 0 ""
Po -1 3.97002
$EndPAD
$PAD
Sh "P$21" R 7.5 1.2 0 0 0
Dr 0 0 0
At SMD N 00400001
Ne 0 ""
Po -1 5.56006
$EndPAD
$PAD
Sh "P$22" R 7.5 1.2 0 0 0
Dr 0 0 0
At SMD N 00400001
Ne 0 ""
Po -1 7.1501
$EndPAD
$PAD
Sh "P$23" R 7.5 1.2 0 0 0
Dr 0 0 0
At SMD N 00400001
Ne 0 ""
Po -1 8.7376
$EndPAD
$PAD
Sh "P$24" R 7.5 1.2 0 0 0
Dr 0 0 0
At SMD N 00400001
Ne 0 ""
Po -1 10.32764
$EndPAD
$PAD
Sh "P$25" R 7.5 1.2 0 0 0
Dr 0 0 0
At SMD N 00400001
Ne 0 ""
Po -1 11.91514
$EndPAD
$PAD
Sh "P$26" R 7.5 1.2 0 0 0
Dr 0 0 0
At SMD N 00400001
Ne 0 ""
Po -1 13.50518
$EndPAD
$PAD
Sh "P$27" R 7.5 1.2 0 0 0
Dr 0 0 0
At SMD N 00400001
Ne 0 ""
Po -1 15.09522
$EndPAD
$PAD
Sh "P$28" R 7.5 1.2 0 0 0
Dr 0 0 0
At SMD N 00400001
Ne 0 ""
Po -1 16.68272
$EndPAD
$PAD
Sh "P$29" R 7.5 1.2 0 0 0
Dr 0 0 0
At SMD N 00400001
Ne 0 ""
Po -1 18.27276
$EndPAD
$PAD
Sh "P$30" R 7.5 1.2 0 0 0
Dr 0 0 0
At SMD N 00400001
Ne 0 ""
Po -1 19.86026
$EndPAD
$PAD
Sh "P$31" R 8 1.2 0 0 0
Dr 0 0 0
At SMD N 00400001
Ne 0 ""
Po -1.3 21.4503
$EndPAD
$PAD
Sh "P$32" R 7.5 1.2 0 0 0
Dr 0 0 0
At SMD N 00400001
Ne 0 ""
Po -1 23.04034
$EndPAD
$PAD
Sh "P$33" R 8 1.2 0 0 0
Dr 0 0 0
At SMD N 00400001
Ne 0 ""
Po -1.3 24.62784
$EndPAD
$PAD
Sh "P$34" R 7.5 1.2 0 0 0
Dr 0 0 0
At SMD N 00400001
Ne 0 ""
Po -1 26.21788
$EndPAD
$PAD
Sh "1" C 3 3 0 0 0
Dr 2.8 0 0
At STD N 00E0FFFF
Ne 0 ""
Po 40.64 -25.4
$EndPAD
$PAD
Sh "2" C 3 3 0 0 0
Dr 2.8 0 0
At STD N 00E0FFFF
Ne 0 ""
Po 40.64 25.4
$EndPAD
$PAD
Sh "3" C 3 3 0 0 0
Dr 2.8 0 0
At STD N 00E0FFFF
Ne 0 ""
Po 8.89 25.4
$EndPAD
$PAD
Sh "4" C 3 3 0 0 0
Dr 2.8 0 0
At STD N 00E0FFFF
Ne 0 ""
Po 8.89 -25.4
$EndPAD
$EndMODULE atarilynx-LYNXCART
$MODULE pin11
Po 0 0 0 15 551CC3EB 00000000 ~~
Li pin11
Sc 0
AR 
Op 0 0 0
T0 0 2.54 1 1 0 0.15 N V 21 N "pin11"
T1 0 -2.54 1 1 0 0.15 N V 21 N "VAL**"
$PAD
Sh "1" R 1 1 0 0 0
Dr 0.8 0 0
At STD N 00E0FFFF
Ne 0 ""
Po -12.7 0
$EndPAD
$PAD
Sh "2" C 1 1 0 0 0
Dr 0.8 0 0
At STD N 00E0FFFF
Ne 0 ""
Po -10.16 0
$EndPAD
$PAD
Sh "3" C 1 1 0 0 0
Dr 0.8 0 0
At STD N 00E0FFFF
Ne 0 ""
Po -7.62 0
$EndPAD
$PAD
Sh "4" C 1 1 0 0 0
Dr 0.8 0 0
At STD N 00E0FFFF
Ne 0 ""
Po -5.08 0
$EndPAD
$PAD
Sh "5" C 1 1 0 0 0
Dr 0.8 0 0
At STD N 00E0FFFF
Ne 0 ""
Po -2.54 0
$EndPAD
$PAD
Sh "6" C 1 1 0 0 0
Dr 0.8 0 0
At STD N 00E0FFFF
Ne 0 ""
Po 0 0
$EndPAD
$PAD
Sh "7" C 1 1 0 0 0
Dr 0.8 0 0
At STD N 00E0FFFF
Ne 0 ""
Po 2.54 0
$EndPAD
$PAD
Sh "8" C 1 1 0 0 0
Dr 0.8 0 0
At STD N 00E0FFFF
Ne 0 ""
Po 5.08 0
$EndPAD
$PAD
Sh "9" C 1 1 0 0 0
Dr 0.8 0 0
At STD N 00E0FFFF
Ne 0 ""
Po 7.62 0
$EndPAD
$PAD
Sh "10" T 1 1 0 0 0
Dr 0.8 0 0
At STD N 00E0FFFF
Ne 0 ""
Po 10.16 0
$EndPAD
$PAD
Sh "11" C 1 1 0 0 0
Dr 0.8 0 0
At STD N 00E0FFFF
Ne 0 ""
Po 12.7 0
$EndPAD
$EndMODULE pin11
$EndLIBRARY
