EESchema Schematic File Version 2
LIBS:power
LIBS:device
LIBS:transistors
LIBS:conn
LIBS:linear
LIBS:regul
LIBS:74xx
LIBS:cmos4000
LIBS:adc-dac
LIBS:memory
LIBS:xilinx
LIBS:special
LIBS:microcontrollers
LIBS:dsp
LIBS:microchip
LIBS:analog_switches
LIBS:motorola
LIBS:texas
LIBS:intel
LIBS:audio
LIBS:interface
LIBS:digital-audio
LIBS:philips
LIBS:display
LIBS:cypress
LIBS:siliconi
LIBS:opto
LIBS:atmel
LIBS:contrib
LIBS:valves
LIBS:atarilynx
LIBS:Cart-cache
EELAYER 27 0
EELAYER END
$Descr A4 11693 8268
encoding utf-8
Sheet 1 1
Title ""
Date "17 jun 2015"
Rev ""
Comp ""
Comment1 ""
Comment2 ""
Comment3 ""
Comment4 ""
$EndDescr
$Comp
L LYNXCART CON1
U 1 1 551BBE29
P 2550 4150
F 0 "CON1" H 2750 6100 50  0000 C CNN
F 1 "LYNXCART" H 2350 6100 50  0000 C CNN
F 2 "atarilynx-LYNXCART" H 2550 4300 50  0001 C CNN
F 3 "" H 2550 4150 60  0000 C CNN
	1    2550 4150
	1    0    0    -1  
$EndComp
$Comp
L SST39SF010A U1
U 1 1 551BD38A
P 5650 2350
F 0 "U1" H 5600 1400 60  0000 C CNN
F 1 "SST39SF010A" H 5650 2350 60  0000 C CNN
F 2 "" H 5650 2350 60  0000 C CNN
F 3 "" H 5650 2350 60  0000 C CNN
	1    5650 2350
	1    0    0    -1  
$EndComp
$Comp
L 24AA16T U2
U 1 1 551CBFAC
P 7300 3800
F 0 "U2" H 7150 3650 60  0000 C CNN
F 1 "24AA16T" H 7300 3800 60  0000 C CNN
F 2 "" H 7300 3800 60  0000 C CNN
F 3 "" H 7300 3800 60  0000 C CNN
	1    7300 3800
	1    0    0    -1  
$EndComp
Wire Wire Line
	5000 2500 3950 2500
Wire Wire Line
	3950 2500 3950 2950
Wire Wire Line
	3950 2950 2850 2950
Wire Wire Line
	5000 2600 3900 2600
Wire Wire Line
	3900 2600 3900 2750
Wire Wire Line
	3900 2750 2850 2750
Wire Wire Line
	3850 2700 5000 2700
Wire Wire Line
	3850 2700 3850 2550
Wire Wire Line
	3850 2550 2850 2550
Wire Wire Line
	5000 2800 4000 2800
Wire Wire Line
	4000 2800 4000 2450
Wire Wire Line
	4000 2450 2850 2450
Wire Wire Line
	5000 2900 3750 2900
Wire Wire Line
	3750 2900 3750 2650
Wire Wire Line
	3750 2650 2850 2650
Wire Wire Line
	5000 3000 3650 3000
Wire Wire Line
	3650 3000 3650 2850
Wire Wire Line
	3650 2850 2850 2850
Wire Wire Line
	5000 3100 3550 3100
Wire Wire Line
	3550 3100 3550 3050
Wire Wire Line
	3550 3050 2850 3050
Wire Wire Line
	5000 3200 3500 3200
Wire Wire Line
	3500 3200 3500 3150
Wire Wire Line
	3500 3150 2850 3150
Wire Wire Line
	5000 3400 4150 3400
Wire Wire Line
	4150 3400 4150 3950
Wire Wire Line
	4150 3950 2850 3950
Wire Wire Line
	5000 3500 4250 3500
Wire Wire Line
	4250 3500 4250 3350
Wire Wire Line
	4250 3350 2850 3350
Wire Wire Line
	5000 3600 4050 3600
Wire Wire Line
	4050 3600 4050 3450
Wire Wire Line
	4050 3450 2850 3450
Wire Wire Line
	5000 3700 4000 3700
Wire Wire Line
	4000 3700 4000 3550
Wire Wire Line
	4000 3550 2850 3550
Wire Wire Line
	5000 3800 3950 3800
Wire Wire Line
	3950 3800 3950 3750
Wire Wire Line
	3950 3750 2850 3750
Wire Wire Line
	5000 3900 3800 3900
Wire Wire Line
	3800 3900 3800 3850
Wire Wire Line
	3800 3850 2850 3850
Wire Wire Line
	5000 4000 3700 4000
Wire Wire Line
	3700 4000 3700 3650
Wire Wire Line
	3700 3650 2850 3650
Wire Wire Line
	5000 4100 3600 4100
Wire Wire Line
	3600 4100 3600 4050
Wire Wire Line
	3600 4050 2850 4050
Wire Wire Line
	3000 5550 2850 5550
Wire Wire Line
	2850 5350 4300 5350
Wire Wire Line
	2850 3250 4850 3250
Wire Wire Line
	4850 3250 4850 5400
Wire Wire Line
	4850 5400 5000 5400
Wire Wire Line
	2850 4150 3500 4150
Wire Wire Line
	3500 4150 3500 4900
Wire Wire Line
	3500 4900 5000 4900
Wire Wire Line
	2850 4250 3550 4250
Wire Wire Line
	3550 4250 3550 5000
Wire Wire Line
	3550 5000 5000 5000
Wire Wire Line
	2850 4350 3600 4350
Wire Wire Line
	3600 4350 3600 5100
Wire Wire Line
	3600 5100 5000 5100
Wire Wire Line
	2850 4450 3650 4450
Wire Wire Line
	3650 4450 3650 5200
Wire Wire Line
	3650 5200 5000 5200
Wire Wire Line
	2850 4550 3700 4550
Wire Wire Line
	3700 4550 3700 4800
Wire Wire Line
	3700 4800 5000 4800
Wire Wire Line
	2850 4650 3750 4650
Wire Wire Line
	3750 4650 3750 4700
Wire Wire Line
	3750 4700 5000 4700
Wire Wire Line
	2850 4750 3800 4750
Wire Wire Line
	3800 4750 3800 4600
Wire Wire Line
	3800 4600 5000 4600
Wire Wire Line
	2850 4850 3850 4850
Wire Wire Line
	3850 4850 3850 4500
Wire Wire Line
	3850 4500 5000 4500
Wire Wire Line
	5000 4400 3900 4400
Wire Wire Line
	3900 4400 3900 5250
Wire Wire Line
	3900 5250 2850 5250
Wire Wire Line
	2850 5250 2850 5300
Wire Wire Line
	2850 5150 3950 5150
Wire Wire Line
	3950 5150 3950 4300
Wire Wire Line
	3950 4300 5000 4300
Wire Wire Line
	2850 5050 4000 5050
Wire Wire Line
	4000 5050 4000 4200
Wire Wire Line
	4000 4200 5000 4200
Wire Wire Line
	2850 4950 3100 4950
Wire Wire Line
	3100 4950 3100 5600
Wire Wire Line
	3100 5600 5000 5600
Wire Wire Line
	3350 5500 5000 5500
Wire Wire Line
	4850 5500 4850 5950
Wire Wire Line
	4850 5950 7300 5950
Wire Wire Line
	4300 1700 7300 1700
Wire Wire Line
	4300 5350 4300 1700
Connection ~ 3000 5350
Wire Wire Line
	2850 2350 3350 2350
Wire Wire Line
	3350 2350 3350 5500
Connection ~ 4850 5500
Wire Wire Line
	7300 1700 7300 3150
Connection ~ 5650 1700
Wire Wire Line
	7300 5950 7300 4500
Connection ~ 5700 5950
Wire Wire Line
	6500 3950 6500 4500
Wire Wire Line
	6500 4500 8850 4500
Wire Wire Line
	2850 5450 3300 5450
Wire Wire Line
	3300 5450 3300 5850
Wire Wire Line
	6200 5850 6200 3800
Wire Wire Line
	6200 3800 6500 3800
Wire Wire Line
	6500 3650 6100 3650
Wire Wire Line
	6100 3650 6100 5750
Wire Wire Line
	6100 5750 4700 5750
Connection ~ 3000 5550
$Comp
L CONN_11 P1
U 1 1 551CC896
P 4250 6600
F 0 "P1" V 4200 6600 60  0000 C CNN
F 1 "CONN_11" V 4300 6600 60  0000 C CNN
F 2 "" H 4250 6600 60  0000 C CNN
F 3 "" H 4250 6600 60  0000 C CNN
	1    4250 6600
	0    -1   1    0   
$EndComp
Wire Wire Line
	3300 5850 6200 5850
Wire Wire Line
	3000 5350 3000 5950
Wire Wire Line
	3000 5950 4050 5950
Wire Wire Line
	4050 5950 4050 6250
Wire Wire Line
	3950 6250 3950 5200
Connection ~ 3950 5200
Wire Wire Line
	3850 6250 3850 5850
Connection ~ 3850 5850
Wire Wire Line
	3750 6250 3750 5500
Connection ~ 3750 5500
Wire Wire Line
	4150 6250 4150 5100
Connection ~ 4150 5100
Wire Wire Line
	4250 6250 4250 5000
Connection ~ 4250 5000
Wire Wire Line
	4350 6250 4350 4900
Connection ~ 4350 4900
Wire Wire Line
	4450 6250 4450 4800
Connection ~ 4450 4800
Wire Wire Line
	4550 6250 4550 4700
Connection ~ 4550 4700
Wire Wire Line
	4650 6250 4650 4600
Connection ~ 4650 4600
Wire Wire Line
	4750 6250 4750 4500
Connection ~ 4750 4500
Wire Wire Line
	4700 5750 4700 5100
Connection ~ 4700 5100
$Comp
L 24AA256SN IC1
U 1 1 55817E2D
P 8550 3850
F 0 "IC1" H 8150 4300 50  0000 L BNN
F 1 "24AA256SN" H 8150 3450 50  0000 L BNN
F 2 "microchip-SO-08" H 8550 4000 50  0001 C CNN
F 3 "" H 8550 3850 60  0000 C CNN
	1    8550 3850
	1    0    0    -1  
$EndComp
Wire Wire Line
	6500 3650 6500 2950
Wire Wire Line
	6500 2950 8050 2950
Wire Wire Line
	8050 2950 8050 3550
Wire Wire Line
	7300 2850 8850 2850
Wire Wire Line
	8850 2850 8850 3350
Connection ~ 7300 2850
Wire Wire Line
	6350 3800 6350 2750
Wire Wire Line
	6350 2750 9150 2750
Wire Wire Line
	9150 2750 9150 3850
Connection ~ 6350 3800
Wire Wire Line
	8050 4500 8050 3650
Connection ~ 7300 4500
Connection ~ 8050 4050
Connection ~ 8050 3950
Connection ~ 8050 3850
Wire Wire Line
	8850 4500 8850 4250
Connection ~ 8050 4500
$EndSCHEMATC
