PCBNEW-LibModule-V1  la 28. maaliskuuta 2015 14.29.47
# encoding utf-8
Units mm
$INDEX
atarilynx-LYNXCART
$EndINDEX
$MODULE atarilynx-LYNXCART
Po 0 0 0 15 55169794 00000000 ~~
Li atarilynx-LYNXCART
Cd ATARI LYNX CART CONNECTOR
Kw ATARI LYNX CART CONNECTOR
Sc 0
AR 
Op 0 0 0
At SMD
T0 0 0 1.524 1.524 0 0.15 N V 21 N "Ref**"
T1 0 0 1.524 1.524 0 0.15 N V 21 N "Val**"
DS 0 -26.19375 2.38125 -26.19375 0.15 21
DS 0 -24.60625 2.38125 -24.60625 0.15 21
DS 0 -23.01875 2.38125 -23.01875 0.15 21
DS 0 -21.43125 2.38125 -21.43125 0.15 21
DS 0 -19.84375 2.38125 -19.84375 0.15 21
DS 0 -18.25625 2.38125 -18.25625 0.15 21
DS 0 -16.66875 2.38125 -16.66875 0.15 21
DS 0 -15.08125 2.38125 -15.08125 0.15 21
DS 0 -13.49375 2.38125 -13.49375 0.15 21
DS 0 -11.90625 2.38125 -11.90625 0.15 21
DS 0 -10.31875 2.38125 -10.31875 0.15 21
DS 0 -8.73125 2.38125 -8.73125 0.15 21
DS 0 -7.14375 2.38125 -7.14375 0.15 21
DS 0 -5.55625 2.38125 -5.55625 0.15 21
DS 0 -3.96875 2.38125 -3.96875 0.15 21
DS 0 -2.38125 2.38125 -2.38125 0.15 21
DS 0 -0.79375 2.38125 -0.79375 0.15 21
DS 0 0.79375 2.38125 0.79375 0.15 21
DS 0 26.19375 2.38125 26.19375 0.15 21
DS 0 24.60625 2.38125 24.60625 0.15 21
DS 0 23.01875 2.38125 23.01875 0.15 21
DS 0 21.43125 2.38125 21.43125 0.15 21
DS 0 19.84375 2.38125 19.84375 0.15 21
DS 0 18.25625 2.38125 18.25625 0.15 21
DS 0 16.66875 2.38125 16.66875 0.15 21
DS 0 15.08125 2.38125 15.08125 0.15 21
DS 0 13.49375 2.38125 13.49375 0.15 21
DS 0 11.90625 2.38125 11.90625 0.15 21
DS 0 10.31875 2.38125 10.31875 0.15 21
DS 0 8.73125 2.38125 8.73125 0.15 21
DS 0 2.38125 2.38125 2.38125 0.15 21
DS 0 3.96875 2.38125 3.96875 0.15 21
DS 0 5.55625 2.38125 5.55625 0.15 21
DS 0 7.14375 2.38125 7.14375 0.15 21
DS -5.28574 -25.56002 0.21082 -25.56002 0.06604 16
DS 0.21082 -25.56002 0.21082 -26.8732 0.06604 16
DS -5.28574 -26.8732 0.21082 -26.8732 0.06604 16
DS -5.28574 -25.56002 -5.28574 -26.8732 0.06604 16
DS -5.2705 25.28062 0.22352 25.28062 0.06604 16
DS 0.22352 25.28062 0.22352 23.9649 0.06604 16
DS -5.2705 23.9649 0.22352 23.9649 0.06604 16
DS -5.2705 25.28062 -5.2705 23.9649 0.06604 16
DS -5.27812 22.098 0.2159 22.098 0.06604 16
DS 0.2159 22.098 0.2159 20.78482 0.06604 16
DS -5.27812 20.78482 0.2159 20.78482 0.06604 16
DS -5.27812 22.098 -5.27812 20.78482 0.06604 16
DS -4.79552 -23.97252 0.20066 -23.97252 0.06604 16
DS 0.20066 -23.97252 0.20066 -25.28062 0.06604 16
DS -4.79552 -25.28062 0.20066 -25.28062 0.06604 16
DS -4.79552 -23.97252 -4.79552 -25.28062 0.06604 16
DS -5.2959 -25.56002 0.20066 -25.56002 0.06604 21
DS 0.20066 -25.56002 0.20066 -26.87574 0.06604 21
DS -5.2959 -26.87574 0.20066 -26.87574 0.06604 21
DS -5.2959 -25.56002 -5.2959 -26.87574 0.06604 21
DS -5.28066 25.28062 0.2159 25.28062 0.06604 21
DS 0.2159 25.28062 0.2159 23.9649 0.06604 21
DS -5.28066 23.9649 0.2159 23.9649 0.06604 21
DS -5.28066 25.28062 -5.28066 23.9649 0.06604 21
DS -5.28066 22.10562 0.2159 22.10562 0.06604 21
DS 0.2159 22.10562 0.2159 20.79244 0.06604 21
DS -5.28066 20.79244 0.2159 20.79244 0.06604 21
DS -5.28066 22.10562 -5.28066 20.79244 0.06604 21
DS -4.79552 -22.38756 0.20066 -22.38756 0.06604 16
DS 0.20066 -22.38756 0.20066 -23.69566 0.06604 16
DS -4.79552 -23.69566 0.20066 -23.69566 0.06604 16
DS -4.79552 -22.38756 -4.79552 -23.69566 0.06604 16
DS -4.79044 -20.8026 0.20828 -20.8026 0.06604 16
DS 0.20828 -20.8026 0.20828 -22.10816 0.06604 16
DS -4.79044 -22.10816 0.20828 -22.10816 0.06604 16
DS -4.79044 -20.8026 -4.79044 -22.10816 0.06604 16
DS -4.79552 -19.20748 0.20066 -19.20748 0.06604 16
DS 0.20066 -19.20748 0.20066 -20.51558 0.06604 16
DS -4.79552 -20.51558 0.20066 -20.51558 0.06604 16
DS -4.79552 -19.20748 -4.79552 -20.51558 0.06604 16
DS -4.80314 -17.61998 0.19304 -17.61998 0.06604 16
DS 0.19304 -17.61998 0.19304 -18.92808 0.06604 16
DS -4.80314 -18.92808 0.19304 -18.92808 0.06604 16
DS -4.80314 -17.61998 -4.80314 -18.92808 0.06604 16
DS -4.79552 -16.03502 0.20066 -16.03502 0.06604 16
DS 0.20066 -16.03502 0.20066 -17.34058 0.06604 16
DS -4.79552 -17.34058 0.20066 -17.34058 0.06604 16
DS -4.79552 -16.03502 -4.79552 -17.34058 0.06604 16
DS -4.79552 -14.4399 0.20066 -14.4399 0.06604 16
DS 0.20066 -14.4399 0.20066 -15.748 0.06604 16
DS -4.79552 -15.748 0.20066 -15.748 0.06604 16
DS -4.79552 -14.4399 -4.79552 -15.748 0.06604 16
DS -4.80568 -12.85494 0.19304 -12.85494 0.06604 16
DS 0.19304 -12.85494 0.19304 -14.1605 0.06604 16
DS -4.80568 -14.1605 0.19304 -14.1605 0.06604 16
DS -4.80568 -12.85494 -4.80568 -14.1605 0.06604 16
DS -4.79552 -11.26998 0.20066 -11.26998 0.06604 16
DS 0.20066 -11.26998 0.20066 -12.57554 0.06604 16
DS -4.79552 -12.57554 0.20066 -12.57554 0.06604 16
DS -4.79552 -11.26998 -4.79552 -12.57554 0.06604 16
DS -4.79552 -9.66724 0.20066 -9.66724 0.06604 16
DS 0.20066 -9.66724 0.20066 -10.9728 0.06604 16
DS -4.79552 -10.9728 0.20066 -10.9728 0.06604 16
DS -4.79552 -9.66724 -4.79552 -10.9728 0.06604 16
DS -4.80568 -8.08736 0.19304 -8.08736 0.06604 16
DS 0.19304 -8.08736 0.19304 -9.39546 0.06604 16
DS -4.80568 -9.39546 0.19304 -9.39546 0.06604 16
DS -4.80568 -8.08736 -4.80568 -9.39546 0.06604 16
DS -4.79552 -6.49478 0.20066 -6.49478 0.06604 16
DS 0.20066 -6.49478 0.20066 -7.80034 0.06604 16
DS -4.79552 -7.80034 0.20066 -7.80034 0.06604 16
DS -4.79552 -6.49478 -4.79552 -7.80034 0.06604 16
DS -4.79552 -4.90728 0.20066 -4.90728 0.06604 16
DS 0.20066 -4.90728 0.20066 -6.21538 0.06604 16
DS -4.79552 -6.21538 0.20066 -6.21538 0.06604 16
DS -4.79552 -4.90728 -4.79552 -6.21538 0.06604 16
DS -4.79044 -3.32994 0.20828 -3.32994 0.06604 16
DS 0.20828 -3.32994 0.20828 -4.6355 0.06604 16
DS -4.79044 -4.6355 0.20828 -4.6355 0.06604 16
DS -4.79044 -3.32994 -4.79044 -4.6355 0.06604 16
DS -4.79552 -1.74244 0.20066 -1.74244 0.06604 16
DS 0.20066 -1.74244 0.20066 -3.05054 0.06604 16
DS -4.79552 -3.05054 0.20066 -3.05054 0.06604 16
DS -4.79552 -1.74244 -4.79552 -3.05054 0.06604 16
DS -4.79552 -0.1397 0.20066 -0.1397 0.06604 16
DS 0.20066 -0.1397 0.20066 -1.4478 0.06604 16
DS -4.79552 -1.4478 0.20066 -1.4478 0.06604 16
DS -4.79552 -0.1397 -4.79552 -1.4478 0.06604 16
DS -4.79552 1.4351 0.20066 1.4351 0.06604 16
DS 0.20066 1.4351 0.20066 0.12954 0.06604 16
DS -4.79552 0.12954 0.20066 0.12954 0.06604 16
DS -4.79552 1.4351 -4.79552 0.12954 0.06604 16
DS -4.79552 3.04546 0.20066 3.04546 0.06604 16
DS 0.20066 3.04546 0.20066 1.7399 0.06604 16
DS -4.79552 1.7399 0.20066 1.7399 0.06604 16
DS -4.79552 3.04546 -4.79552 1.7399 0.06604 16
DS -4.7879 4.61518 0.20828 4.61518 0.06604 16
DS 0.20828 4.61518 0.20828 3.30962 0.06604 16
DS -4.7879 3.30962 0.20828 3.30962 0.06604 16
DS -4.7879 4.61518 -4.7879 3.30962 0.06604 16
DS -4.79552 6.21792 0.20066 6.21792 0.06604 16
DS 0.20066 6.21792 0.20066 4.90982 0.06604 16
DS -4.79552 4.90982 0.20066 4.90982 0.06604 16
DS -4.79552 6.21792 -4.79552 4.90982 0.06604 16
DS -4.79552 7.79526 0.20066 7.79526 0.06604 16
DS 0.20066 7.79526 0.20066 6.4897 0.06604 16
DS -4.79552 6.4897 0.20066 6.4897 0.06604 16
DS -4.79552 7.79526 -4.79552 6.4897 0.06604 16
DS -4.79552 9.398 0.20066 9.398 0.06604 16
DS 0.20066 9.398 0.20066 8.0899 0.06604 16
DS -4.79552 8.0899 0.20066 8.0899 0.06604 16
DS -4.79552 9.398 -4.79552 8.0899 0.06604 16
DS -4.79552 10.97788 0.20066 10.97788 0.06604 16
DS 0.20066 10.97788 0.20066 9.66978 0.06604 16
DS -4.79552 9.66978 0.20066 9.66978 0.06604 16
DS -4.79552 10.97788 -4.79552 9.66978 0.06604 16
DS -4.79552 12.57046 0.20066 12.57046 0.06604 16
DS 0.20066 12.57046 0.20066 11.2649 0.06604 16
DS -4.79552 11.2649 0.20066 11.2649 0.06604 16
DS -4.79552 12.57046 -4.79552 11.2649 0.06604 16
DS -4.79552 14.15034 0.20066 14.15034 0.06604 16
DS 0.20066 14.15034 0.20066 12.84224 0.06604 16
DS -4.79552 12.84224 0.20066 12.84224 0.06604 16
DS -4.79552 14.15034 -4.79552 12.84224 0.06604 16
DS -4.79552 15.75054 0.20066 15.75054 0.06604 16
DS 0.20066 15.75054 0.20066 14.44498 0.06604 16
DS -4.79552 14.44498 0.20066 14.44498 0.06604 16
DS -4.79552 15.75054 -4.79552 14.44498 0.06604 16
DS -4.79552 17.3228 0.20066 17.3228 0.06604 16
DS 0.20066 17.3228 0.20066 16.0147 0.06604 16
DS -4.79552 16.0147 0.20066 16.0147 0.06604 16
DS -4.79552 17.3228 -4.79552 16.0147 0.06604 16
DS -4.79552 18.92554 0.20066 18.92554 0.06604 16
DS 0.20066 18.92554 0.20066 17.61744 0.06604 16
DS -4.79552 17.61744 0.20066 17.61744 0.06604 16
DS -4.79552 18.92554 -4.79552 17.61744 0.06604 16
DS -4.79552 20.51812 0.20066 20.51812 0.06604 16
DS 0.20066 20.51812 0.20066 19.21256 0.06604 16
DS -4.79552 19.21256 0.20066 19.21256 0.06604 16
DS -4.79552 20.51812 -4.79552 19.21256 0.06604 16
DS -4.82092 23.69058 0.1778 23.69058 0.06604 16
DS 0.1778 23.69058 0.1778 22.38502 0.06604 16
DS -4.82092 22.38502 0.1778 22.38502 0.06604 16
DS -4.82092 23.69058 -4.82092 22.38502 0.06604 16
DS -4.80314 26.8859 0.19304 26.8859 0.06604 16
DS 0.19304 26.8859 0.19304 25.58034 0.06604 16
DS -4.80314 25.58034 0.19304 25.58034 0.06604 16
DS -4.80314 26.8859 -4.80314 25.58034 0.06604 16
DS -4.81076 26.89098 0.18796 26.89098 0.06604 21
DS 0.18796 26.89098 0.18796 25.57526 0.06604 21
DS -4.81076 25.57526 0.18796 25.57526 0.06604 21
DS -4.81076 26.89098 -4.81076 25.57526 0.06604 21
DS -4.81076 23.70582 0.18796 23.70582 0.06604 21
DS 0.18796 23.70582 0.18796 22.3901 0.06604 21
DS -4.81076 22.3901 0.18796 22.3901 0.06604 21
DS -4.81076 23.70582 -4.81076 22.3901 0.06604 21
DS -4.80314 20.5105 0.19558 20.5105 0.06604 21
DS 0.19558 20.5105 0.19558 19.19478 0.06604 21
DS -4.80314 19.19478 0.19558 19.19478 0.06604 21
DS -4.80314 20.5105 -4.80314 19.19478 0.06604 21
DS -4.80314 18.92808 0.19558 18.92808 0.06604 21
DS 0.19558 18.92808 0.19558 17.6149 0.06604 21
DS -4.80314 17.6149 0.19558 17.6149 0.06604 21
DS -4.80314 18.92808 -4.80314 17.6149 0.06604 21
DS -4.80314 17.32534 0.19558 17.32534 0.06604 21
DS 0.19558 17.32534 0.19558 16.00962 0.06604 21
DS -4.80314 16.00962 0.19558 16.00962 0.06604 21
DS -4.80314 17.32534 -4.80314 16.00962 0.06604 21
DS -4.80314 15.75054 0.19558 15.75054 0.06604 21
DS 0.19558 15.75054 0.19558 14.43482 0.06604 21
DS -4.80314 14.43482 0.19558 14.43482 0.06604 21
DS -4.80314 15.75054 -4.80314 14.43482 0.06604 21
DS -4.79552 14.15288 0.2032 14.15288 0.06604 21
DS 0.2032 14.15288 0.2032 12.83716 0.06604 21
DS -4.79552 12.83716 0.2032 12.83716 0.06604 21
DS -4.79552 14.15288 -4.79552 12.83716 0.06604 21
DS -4.79552 12.57808 0.2032 12.57808 0.06604 21
DS 0.2032 12.57808 0.2032 11.26236 0.06604 21
DS -4.79552 11.26236 0.2032 11.26236 0.06604 21
DS -4.79552 12.57808 -4.79552 11.26236 0.06604 21
DS -4.79552 10.98296 0.2032 10.98296 0.06604 21
DS 0.2032 10.98296 0.2032 9.66724 0.06604 21
DS -4.79552 9.66724 0.2032 9.66724 0.06604 21
DS -4.79552 10.98296 -4.79552 9.66724 0.06604 21
DS -4.8006 9.40054 0.19558 9.40054 0.06604 21
DS 0.19558 9.40054 0.19558 8.08482 0.06604 21
DS -4.8006 8.08482 0.19558 8.08482 0.06604 21
DS -4.8006 9.40054 -4.8006 8.08482 0.06604 21
DS -4.79552 7.80288 0.2032 7.80288 0.06604 21
DS 0.2032 7.80288 0.2032 6.48716 0.06604 21
DS -4.79552 6.48716 0.2032 6.48716 0.06604 21
DS -4.79552 7.80288 -4.79552 6.48716 0.06604 21
DS -4.7879 6.22046 0.21082 6.22046 0.06604 21
DS 0.21082 6.22046 0.21082 4.90474 0.06604 21
DS -4.7879 4.90474 0.21082 4.90474 0.06604 21
DS -4.7879 6.22046 -4.7879 4.90474 0.06604 21
DS -4.7879 4.61518 0.21082 4.61518 0.06604 21
DS 0.21082 4.61518 0.21082 3.302 0.06604 21
DS -4.7879 3.302 0.21082 3.302 0.06604 21
DS -4.7879 4.61518 -4.7879 3.302 0.06604 21
DS -4.81076 3.048 0.18796 3.048 0.06604 21
DS 0.18796 3.048 0.18796 1.73228 0.06604 21
DS -4.81076 1.73228 0.18796 1.73228 0.06604 21
DS -4.81076 3.048 -4.81076 1.73228 0.06604 21
DS -4.7879 1.43764 0.20828 1.43764 0.06604 21
DS 0.20828 1.43764 0.20828 0.12192 0.06604 21
DS -4.7879 0.12192 0.20828 0.12192 0.06604 21
DS -4.7879 1.43764 -4.7879 0.12192 0.06604 21
DS -4.79552 -0.14224 0.20066 -0.14224 0.06604 21
DS 0.20066 -0.14224 0.20066 -1.45796 0.06604 21
DS -4.79552 -1.45796 0.20066 -1.45796 0.06604 21
DS -4.79552 -0.14224 -4.79552 -1.45796 0.06604 21
DS -4.79552 -1.73482 0.20066 -1.73482 0.06604 21
DS 0.20066 -1.73482 0.20066 -3.048 0.06604 21
DS -4.79552 -3.048 0.20066 -3.048 0.06604 21
DS -4.79552 -1.73482 -4.79552 -3.048 0.06604 21
DS -4.79552 -3.32994 0.20066 -3.32994 0.06604 21
DS 0.20066 -3.32994 0.20066 -4.64566 0.06604 21
DS -4.79552 -4.64566 0.20066 -4.64566 0.06604 21
DS -4.79552 -3.32994 -4.79552 -4.64566 0.06604 21
DS -4.79552 -4.90474 0.20066 -4.90474 0.06604 21
DS 0.20066 -4.90474 0.20066 -6.22046 0.06604 21
DS -4.79552 -6.22046 0.20066 -6.22046 0.06604 21
DS -4.79552 -4.90474 -4.79552 -6.22046 0.06604 21
DS -4.79552 -6.49478 0.20066 -6.49478 0.06604 21
DS 0.20066 -6.49478 0.20066 -7.8105 0.06604 21
DS -4.79552 -7.8105 0.20066 -7.8105 0.06604 21
DS -4.79552 -6.49478 -4.79552 -7.8105 0.06604 21
DS -4.79552 -8.09244 0.20066 -8.09244 0.06604 21
DS 0.20066 -8.09244 0.20066 -9.40562 0.06604 21
DS -4.79552 -9.40562 0.20066 -9.40562 0.06604 21
DS -4.79552 -8.09244 -4.79552 -9.40562 0.06604 21
DS -4.80314 -9.65962 0.19558 -9.65962 0.06604 21
DS 0.19558 -9.65962 0.19558 -10.9728 0.06604 21
DS -4.80314 -10.9728 0.19558 -10.9728 0.06604 21
DS -4.80314 -9.65962 -4.80314 -10.9728 0.06604 21
DS -4.79552 -11.26998 0.20066 -11.26998 0.06604 21
DS 0.20066 -11.26998 0.20066 -12.5857 0.06604 21
DS -4.79552 -12.5857 0.20066 -12.5857 0.06604 21
DS -4.79552 -11.26998 -4.79552 -12.5857 0.06604 21
DS -4.79552 -12.8524 0.20066 -12.8524 0.06604 21
DS 0.20066 -12.8524 0.20066 -14.16558 0.06604 21
DS -4.79552 -14.16558 0.20066 -14.16558 0.06604 21
DS -4.79552 -12.8524 -4.79552 -14.16558 0.06604 21
DS -4.79552 -14.44244 0.20066 -14.44244 0.06604 21
DS 0.20066 -14.44244 0.20066 -15.75816 0.06604 21
DS -4.79552 -15.75816 0.20066 -15.75816 0.06604 21
DS -4.79552 -14.44244 -4.79552 -15.75816 0.06604 21
DS -4.79552 -16.02486 0.20066 -16.02486 0.06604 21
DS 0.20066 -16.02486 0.20066 -17.34058 0.06604 21
DS -4.79552 -17.34058 0.20066 -17.34058 0.06604 21
DS -4.79552 -16.02486 -4.79552 -17.34058 0.06604 21
DS -4.7879 -17.6276 0.20828 -17.6276 0.06604 21
DS 0.20828 -17.6276 0.20828 -18.94332 0.06604 21
DS -4.7879 -18.94332 0.20828 -18.94332 0.06604 21
DS -4.7879 -17.6276 -4.7879 -18.94332 0.06604 21
DS -4.79552 -19.21764 0.20066 -19.21764 0.06604 21
DS 0.20066 -19.21764 0.20066 -20.53336 0.06604 21
DS -4.79552 -20.53336 0.20066 -20.53336 0.06604 21
DS -4.79552 -19.21764 -4.79552 -20.53336 0.06604 21
DS -4.7879 -20.78482 0.20828 -20.78482 0.06604 21
DS 0.20828 -20.78482 0.20828 -22.10054 0.06604 21
DS -4.7879 -22.10054 0.20828 -22.10054 0.06604 21
DS -4.7879 -20.78482 -4.7879 -22.10054 0.06604 21
DS -4.79552 -22.3901 0.20066 -22.3901 0.06604 21
DS 0.20066 -22.3901 0.20066 -23.70582 0.06604 21
DS -4.79552 -23.70582 0.20066 -23.70582 0.06604 21
DS -4.79552 -22.3901 -4.79552 -23.70582 0.06604 21
DS -4.81076 -23.9649 0.18796 -23.9649 0.06604 21
DS 0.18796 -23.9649 0.18796 -25.28062 0.06604 21
DS -4.81076 -25.28062 0.18796 -25.28062 0.06604 21
DS -4.81076 -23.9649 -4.81076 -25.28062 0.06604 21
DS -6.49986 -28.74772 54.49824 -28.74772 0.127 21
DS 54.49824 -28.74772 54.49824 28.74772 0.127 21
DS 54.49824 28.74772 -6.49986 28.74772 0.127 21
DS 31.75 -27.94 31.75 -26.67 0.127 21
DS 31.75 27.94 31.75 26.67 0.127 21
DS -6.49986 -28.4988 -6.49986 28.74772 0.127 21
$PAD
Sh "P$1" R 1.4224 0.7112 0 0 0
Dr 0.6 0 0
At STD N 00E0FFFF
Ne 0 ""
Po 0 -26.21788
$EndPAD
$PAD
Sh "P$2" R 1.4224 0.7112 0 0 0
Dr 0.6 0 0
At STD N 00E0FFFF
Ne 0 ""
Po 0 -24.60625
$EndPAD
$PAD
Sh "P$3" R 1.4224 0.7112 0 0 0
Dr 0.6 0 0
At STD N 00E0FFFF
Ne 0 ""
Po 0 -23.04034
$EndPAD
$PAD
Sh "P$4" R 1.4224 0.7112 0 0 0
Dr 0.6 0 0
At STD N 00E0FFFF
Ne 0 ""
Po 0 -21.4503
$EndPAD
$PAD
Sh "P$5" R 1.4224 0.7112 0 0 0
Dr 0.6 0 0
At STD N 00E0FFFF
Ne 0 ""
Po 0 -19.86026
$EndPAD
$PAD
Sh "P$6" R 1.4224 0.7112 0 0 0
Dr 0.6 0 0
At STD N 00E0FFFF
Ne 0 ""
Po 0 -18.27276
$EndPAD
$PAD
Sh "P$7" R 1.4224 0.7112 0 0 0
Dr 0.6 0 0
At STD N 00E0FFFF
Ne 0 ""
Po 0 -16.66875
$EndPAD
$PAD
Sh "P$8" R 1.4224 0.7112 0 0 0
Dr 0.6 0 0
At STD N 00E0FFFF
Ne 0 ""
Po 0 -15.08125
$EndPAD
$PAD
Sh "P$9" R 1.4224 0.7112 0 0 0
Dr 0.6 0 0
At STD N 00E0FFFF
Ne 0 ""
Po 0 -13.49375
$EndPAD
$PAD
Sh "P$10" R 1.4224 0.7112 0 0 0
Dr 0.6 0 0
At STD N 00E0FFFF
Ne 0 ""
Po 0 -11.90625
$EndPAD
$PAD
Sh "P$11" R 1.4224 0.7112 0 0 0
Dr 0.6 0 0
At STD N 00E0FFFF
Ne 0 ""
Po 0 -10.31875
$EndPAD
$PAD
Sh "P$12" R 1.4224 0.7112 0 0 0
Dr 0.6 0 0
At STD N 00E0FFFF
Ne 0 ""
Po 0 -8.73125
$EndPAD
$PAD
Sh "P$13" R 1.4224 0.7112 0 0 0
Dr 0.6 0 0
At STD N 00E0FFFF
Ne 0 ""
Po 0 -7.14375
$EndPAD
$PAD
Sh "P$14" R 1.4224 0.7112 0 0 0
Dr 0.6 0 0
At STD N 00E0FFFF
Ne 0 ""
Po 0 -5.55625
$EndPAD
$PAD
Sh "P$15" R 1.4224 0.7112 0 0 0
Dr 0.6 0 0
At STD N 00E0FFFF
Ne 0 ""
Po 0 -3.96875
$EndPAD
$PAD
Sh "P$16" R 1.4224 0.7112 0 0 0
Dr 0.6 0 0
At STD N 00E0FFFF
Ne 0 ""
Po 0 -2.38125
$EndPAD
$PAD
Sh "P$17" R 1.4224 0.7112 0 0 0
Dr 0.6 0 0
At STD N 00E0FFFF
Ne 0 ""
Po 0 -0.79375
$EndPAD
$PAD
Sh "P$18" R 1.4224 0.7112 0 0 0
Dr 0.6 0 0
At STD N 00E0FFFF
Ne 0 ""
Po 0 0.79375
$EndPAD
$PAD
Sh "P$19" R 1.4224 0.7112 0 0 0
Dr 0.6 0 0
At STD N 00E0FFFF
Ne 0 ""
Po 0 2.38125
$EndPAD
$PAD
Sh "P$20" R 1.4224 0.7112 0 0 0
Dr 0.6 0 0
At STD N 00E0FFFF
Ne 0 ""
Po 0 3.96875
$EndPAD
$PAD
Sh "P$21" R 1.4224 0.7112 0 0 0
Dr 0.6 0 0
At STD N 00E0FFFF
Ne 0 ""
Po 0 5.55625
$EndPAD
$PAD
Sh "P$22" R 1.4224 0.7112 0 0 0
Dr 0.6 0 0
At STD N 00E0FFFF
Ne 0 ""
Po 0 7.14375
$EndPAD
$PAD
Sh "P$23" R 1.4224 0.7112 0 0 0
Dr 0.6 0 0
At STD N 00E0FFFF
Ne 0 ""
Po 0 8.73125
$EndPAD
$PAD
Sh "P$24" R 1.4224 0.7112 0 0 0
Dr 0.6 0 0
At STD N 00E0FFFF
Ne 0 ""
Po 0 10.31875
$EndPAD
$PAD
Sh "P$25" R 1.4224 0.7112 0 0 0
Dr 0.6 0 0
At STD N 00E0FFFF
Ne 0 ""
Po 0 11.90625
$EndPAD
$PAD
Sh "P$26" R 1.4224 0.7112 0 0 0
Dr 0.6 0 0
At STD N 00E0FFFF
Ne 0 ""
Po 0 13.49375
$EndPAD
$PAD
Sh "P$27" R 1.4224 0.7112 0 0 0
Dr 0.6 0 0
At STD N 00E0FFFF
Ne 0 ""
Po 0 15.08125
$EndPAD
$PAD
Sh "P$28" R 1.4224 0.7112 0 0 0
Dr 0.6 0 0
At STD N 00E0FFFF
Ne 0 ""
Po 0 16.66875
$EndPAD
$PAD
Sh "P$29" R 1.4224 0.7112 0 0 0
Dr 0.6 0 0
At STD N 00E0FFFF
Ne 0 ""
Po 0 18.25625
$EndPAD
$PAD
Sh "P$30" R 1.4224 0.7112 0 0 0
Dr 0.6 0 0
At STD N 00E0FFFF
Ne 0 ""
Po 0 19.84375
$EndPAD
$PAD
Sh "P$31" R 1.4224 0.7112 0 0 0
Dr 0.6 0 0
At STD N 00E0FFFF
Ne 0 ""
Po 0 21.43125
$EndPAD
$PAD
Sh "P$32" R 1.4224 0.7112 0 0 0
Dr 0.6 0 0
At STD N 00E0FFFF
Ne 0 ""
Po 0 23.01875
$EndPAD
$PAD
Sh "P$33" R 1.4224 0.7112 0 0 0
Dr 0.6 0 0
At STD N 00E0FFFF
Ne 0 ""
Po 0 24.60625
$EndPAD
$PAD
Sh "P$34" R 1.4224 0.7112 0 0 0
Dr 0.6 0 0
At STD N 00E0FFFF
Ne 0 ""
Po 0 26.19375
$EndPAD
$PAD
Sh "P$1" R 1.4224 0.7112 0 0 0
Dr 0.6 0 0
At STD N 00E0FFFF
Ne 0 ""
Po 2.38125 -26.19375
$EndPAD
$PAD
Sh "P$2" R 1.4224 0.7112 0 0 0
Dr 0.6 0 0
At STD N 00E0FFFF
Ne 0 ""
Po 2.38125 -24.60625
$EndPAD
$PAD
Sh "P$3" R 1.4224 0.7112 0 0 0
Dr 0.6 0 0
At STD N 00E0FFFF
Ne 0 ""
Po 2.38125 -23.01875
$EndPAD
$PAD
Sh "P$4" R 1.4224 0.7112 0 0 0
Dr 0.6 0 0
At STD N 00E0FFFF
Ne 0 ""
Po 2.38125 -21.43125
$EndPAD
$PAD
Sh "P$5" R 1.4224 0.7112 0 0 0
Dr 0.6 0 0
At STD N 00E0FFFF
Ne 0 ""
Po 2.38125 -19.84375
$EndPAD
$PAD
Sh "P$6" R 1.4224 0.7112 0 0 0
Dr 0.6 0 0
At STD N 00E0FFFF
Ne 0 ""
Po 2.38125 -18.25625
$EndPAD
$PAD
Sh "P$7" R 1.4224 0.7112 0 0 0
Dr 0.6 0 0
At STD N 00E0FFFF
Ne 0 ""
Po 2.38125 -16.66875
$EndPAD
$PAD
Sh "P$8" R 1.4224 0.7112 0 0 0
Dr 0.6 0 0
At STD N 00E0FFFF
Ne 0 ""
Po 2.38125 -15.08125
$EndPAD
$PAD
Sh "P$9" R 1.4224 0.7112 0 0 0
Dr 0.6 0 0
At STD N 00E0FFFF
Ne 0 ""
Po 2.38125 -13.49375
$EndPAD
$PAD
Sh "P$10" R 1.4224 0.7112 0 0 0
Dr 0.6 0 0
At STD N 00E0FFFF
Ne 0 ""
Po 2.38125 -11.90625
$EndPAD
$PAD
Sh "P$11" R 1.4224 0.7112 0 0 0
Dr 0.6 0 0
At STD N 00E0FFFF
Ne 0 ""
Po 2.38125 -10.31875
$EndPAD
$PAD
Sh "P$12" R 1.4224 0.7112 0 0 0
Dr 0.6 0 0
At STD N 00E0FFFF
Ne 0 ""
Po 2.38125 -8.73125
$EndPAD
$PAD
Sh "P$13" R 1.4224 0.7112 0 0 0
Dr 0.6 0 0
At STD N 00E0FFFF
Ne 0 ""
Po 2.38125 -7.14375
$EndPAD
$PAD
Sh "P$14" R 1.4224 0.7112 0 0 0
Dr 0.6 0 0
At STD N 00E0FFFF
Ne 0 ""
Po 2.38125 -5.55625
$EndPAD
$PAD
Sh "P$15" R 1.4224 0.7112 0 0 0
Dr 0.6 0 0
At STD N 00E0FFFF
Ne 0 ""
Po 2.38125 -3.96875
$EndPAD
$PAD
Sh "P$16" R 1.4224 0.7112 0 0 0
Dr 0.6 0 0
At STD N 00E0FFFF
Ne 0 ""
Po 2.38125 -2.38125
$EndPAD
$PAD
Sh "P$17" R 1.4224 0.7112 0 0 0
Dr 0.6 0 0
At STD N 00E0FFFF
Ne 0 ""
Po 2.38125 -0.79375
$EndPAD
$PAD
Sh "P$18" R 1.4224 0.7112 0 0 0
Dr 0.6 0 0
At STD N 00E0FFFF
Ne 0 ""
Po 2.38125 0.79375
$EndPAD
$PAD
Sh "P$19" R 1.4224 0.7112 0 0 0
Dr 0.6 0 0
At STD N 00E0FFFF
Ne 0 ""
Po 2.38125 2.38125
$EndPAD
$PAD
Sh "P$20" R 1.4224 0.7112 0 0 0
Dr 0.6 0 0
At STD N 00E0FFFF
Ne 0 ""
Po 2.38125 3.96875
$EndPAD
$PAD
Sh "P$21" R 1.4224 0.7112 0 0 0
Dr 0.6 0 0
At STD N 00E0FFFF
Ne 0 ""
Po 2.38125 5.55625
$EndPAD
$PAD
Sh "P$22" R 1.4224 0.7112 0 0 0
Dr 0.6 0 0
At STD N 00E0FFFF
Ne 0 ""
Po 2.38125 7.14375
$EndPAD
$PAD
Sh "P$23" R 1.4224 0.7112 0 0 0
Dr 0.6 0 0
At STD N 00E0FFFF
Ne 0 ""
Po 2.38125 8.73125
$EndPAD
$PAD
Sh "P$24" R 1.4224 0.7112 0 0 0
Dr 0.6 0 0
At STD N 00E0FFFF
Ne 0 ""
Po 2.38125 10.31875
$EndPAD
$PAD
Sh "P$25" R 1.4224 0.7112 0 0 0
Dr 0.6 0 0
At STD N 00E0FFFF
Ne 0 ""
Po 2.38125 11.90625
$EndPAD
$PAD
Sh "P$26" R 1.4224 0.7112 0 0 0
Dr 0.6 0 0
At STD N 00E0FFFF
Ne 0 ""
Po 2.38125 13.49375
$EndPAD
$PAD
Sh "P$27" R 1.4224 0.7112 0 0 0
Dr 0.6 0 0
At STD N 00E0FFFF
Ne 0 ""
Po 2.38125 15.08125
$EndPAD
$PAD
Sh "P$28" R 1.4224 0.7112 0 0 0
Dr 0.6 0 0
At STD N 00E0FFFF
Ne 0 ""
Po 2.38125 16.66875
$EndPAD
$PAD
Sh "P$29" R 1.4224 0.7112 0 0 0
Dr 0.6 0 0
At STD N 00E0FFFF
Ne 0 ""
Po 2.38125 18.25625
$EndPAD
$PAD
Sh "P$30" R 1.4224 0.7112 0 0 0
Dr 0.6 0 0
At STD N 00E0FFFF
Ne 0 ""
Po 2.38125 19.84375
$EndPAD
$PAD
Sh "P$31" R 1.4224 0.7112 0 0 0
Dr 0.6 0 0
At STD N 00E0FFFF
Ne 0 ""
Po 2.38125 21.43125
$EndPAD
$PAD
Sh "P$32" R 1.4224 0.7112 0 0 0
Dr 0.6 0 0
At STD N 00E0FFFF
Ne 0 ""
Po 2.38125 23.01875
$EndPAD
$PAD
Sh "P$33" R 1.4224 0.7112 0 0 0
Dr 0.6 0 0
At STD N 00E0FFFF
Ne 0 ""
Po 2.38125 24.60625
$EndPAD
$PAD
Sh "P$34" R 1.4224 0.7112 0 0 0
Dr 0.6 0 0
At STD N 00E0FFFF
Ne 0 ""
Po 2.38125 26.19375
$EndPAD
$PAD
Sh "P$1" C 1.4224 1.4224 0 0 0
Dr 1 0 0
At STD N 00E0FFFF
Ne 0 ""
Po 53.18125 34.925
$EndPAD
$PAD
Sh "P$2" C 1.4224 1.4224 0 0 0
Dr 1 0 0
At STD N 00E0FFFF
Ne 0 ""
Po 51.59375 37.30625
$EndPAD
$PAD
Sh "P$3" C 1.4224 1.4224 0 0 0
Dr 1 0 0
At STD N 00E0FFFF
Ne 0 ""
Po 50.00625 34.925
$EndPAD
$PAD
Sh "P$4" C 1.4224 1.4224 0 0 0
Dr 1 0 0
At STD N 00E0FFFF
Ne 0 ""
Po 48.41875 37.30625
$EndPAD
$PAD
Sh "P$5" C 1.4224 1.4224 0 0 0
Dr 1 0 0
At STD N 00E0FFFF
Ne 0 ""
Po 46.83125 34.925
$EndPAD
$PAD
Sh "P$6" C 1.4224 1.4224 0 0 0
Dr 1 0 0
At STD N 00E0FFFF
Ne 0 ""
Po 45.24375 37.30625
$EndPAD
$PAD
Sh "P$7" C 1.4224 1.4224 0 0 0
Dr 1 0 0
At STD N 00E0FFFF
Ne 0 ""
Po 43.65625 34.925
$EndPAD
$PAD
Sh "P$8" C 1.4224 1.4224 0 0 0
Dr 1 0 0
At STD N 00E0FFFF
Ne 0 ""
Po 42.06875 37.30625
$EndPAD
$PAD
Sh "P$9" C 1.4224 1.4224 0 0 0
Dr 1 0 0
At STD N 00E0FFFF
Ne 0 ""
Po 40.48125 34.925
$EndPAD
$PAD
Sh "P$10" C 1.4224 1.4224 0 0 0
Dr 1 0 0
At STD N 00E0FFFF
Ne 0 ""
Po 38.89375 37.30625
$EndPAD
$PAD
Sh "P$11" C 1.4224 1.4224 0 0 0
Dr 1 0 0
At STD N 00E0FFFF
Ne 0 ""
Po 37.30625 34.925
$EndPAD
$PAD
Sh "P$12" C 1.4224 1.4224 0 0 0
Dr 1 0 0
At STD N 00E0FFFF
Ne 0 ""
Po 35.71875 37.30625
$EndPAD
$PAD
Sh "P$13" C 1.4224 1.4224 0 0 0
Dr 1 0 0
At STD N 00E0FFFF
Ne 0 ""
Po 34.13125 34.925
$EndPAD
$PAD
Sh "P$14" C 1.4224 1.4224 0 0 0
Dr 1 0 0
At STD N 00E0FFFF
Ne 0 ""
Po 32.54375 37.30625
$EndPAD
$PAD
Sh "P$15" C 1.4224 1.4224 0 0 0
Dr 1 0 0
At STD N 00E0FFFF
Ne 0 ""
Po 30.95625 34.925
$EndPAD
$PAD
Sh "P$16" C 1.4224 1.4224 0 0 0
Dr 1 0 0
At STD N 00E0FFFF
Ne 0 ""
Po 29.36875 37.30625
$EndPAD
$PAD
Sh "P$17" C 1.4224 1.4224 0 0 0
Dr 1 0 0
At STD N 00E0FFFF
Ne 0 ""
Po 27.78125 34.925
$EndPAD
$PAD
Sh "P$18" C 1.4224 1.4224 0 0 0
Dr 1 0 0
At STD N 00E0FFFF
Ne 0 ""
Po 26.19375 37.30625
$EndPAD
$PAD
Sh "P$19" C 1.4224 1.4224 0 0 0
Dr 1 0 0
At STD N 00E0FFFF
Ne 0 ""
Po 24.60625 34.925
$EndPAD
$PAD
Sh "P$20" C 1.4224 1.4224 0 0 0
Dr 1 0 0
At STD N 00E0FFFF
Ne 0 ""
Po 23.01875 37.30625
$EndPAD
$PAD
Sh "P$21" C 1.4224 1.4224 0 0 0
Dr 1 0 0
At STD N 00E0FFFF
Ne 0 ""
Po 21.43125 34.925
$EndPAD
$PAD
Sh "P$23" C 1.4224 1.4224 0 0 0
Dr 1 0 0
At STD N 00E0FFFF
Ne 0 ""
Po 18.25625 34.925
$EndPAD
$PAD
Sh "P$24" C 1.4224 1.4224 0 0 0
Dr 1 0 0
At STD N 00E0FFFF
Ne 0 ""
Po 16.66875 37.30625
$EndPAD
$PAD
Sh "P$25" C 1.4224 1.4224 0 0 0
Dr 1 0 0
At STD N 00E0FFFF
Ne 0 ""
Po 15.08125 34.925
$EndPAD
$PAD
Sh "P$26" C 1.4224 1.4224 0 0 0
Dr 1 0 0
At STD N 00E0FFFF
Ne 0 ""
Po 13.49375 37.30625
$EndPAD
$PAD
Sh "P$27" C 1.4224 1.4224 0 0 0
Dr 1 0 0
At STD N 00E0FFFF
Ne 0 ""
Po 11.90625 34.925
$EndPAD
$PAD
Sh "P$28" C 1.4224 1.4224 0 0 0
Dr 1 0 0
At STD N 00E0FFFF
Ne 0 ""
Po 10.31875 37.30625
$EndPAD
$PAD
Sh "P$29" C 1.4224 1.4224 0 0 0
Dr 1 0 0
At STD N 00E0FFFF
Ne 0 ""
Po 8.73125 34.925
$EndPAD
$PAD
Sh "P$30" C 1.4224 1.4224 0 0 0
Dr 1 0 0
At STD N 00E0FFFF
Ne 0 ""
Po 7.14375 37.30625
$EndPAD
$PAD
Sh "P$31" C 1.4224 1.4224 0 0 0
Dr 1 0 0
At STD N 00E0FFFF
Ne 0 ""
Po 5.55625 34.925
$EndPAD
$PAD
Sh "P$32" C 1.4224 1.4224 0 0 0
Dr 1 0 0
At STD N 00E0FFFF
Ne 0 ""
Po 3.96875 37.30625
$EndPAD
$PAD
Sh "P$33" C 1.4224 1.4224 0 0 0
Dr 1 0 0
At STD N 00E0FFFF
Ne 0 ""
Po 2.38125 34.925
$EndPAD
$PAD
Sh "P$34" C 1.4224 1.4224 0 0 0
Dr 1 0 0
At STD N 00E0FFFF
Ne 0 ""
Po 0.79375 37.30625
$EndPAD
$PAD
Sh "P$22" C 1.4224 1.4224 0 0 0
Dr 1 0 0
At STD N 00E0FFFF
Ne 0 ""
Po 19.84375 37.30625
$EndPAD
$EndMODULE atarilynx-LYNXCART
$EndLIBRARY
