EESchema Schematic File Version 2
LIBS:LynxProgrammer-rescue
LIBS:power
LIBS:device
LIBS:transistors
LIBS:conn
LIBS:linear
LIBS:regul
LIBS:74xx
LIBS:cmos4000
LIBS:adc-dac
LIBS:memory
LIBS:xilinx
LIBS:microcontrollers
LIBS:dsp
LIBS:microchip
LIBS:analog_switches
LIBS:motorola
LIBS:texas
LIBS:intel
LIBS:audio
LIBS:interface
LIBS:digital-audio
LIBS:philips
LIBS:display
LIBS:cypress
LIBS:siliconi
LIBS:opto
LIBS:atmel
LIBS:contrib
LIBS:valves
LIBS:w_rtx
LIBS:atarilynx
LIBS:LynxProgrammer
LIBS:LynxProgrammer-cache
EELAYER 25 0
EELAYER END
$Descr A3 16535 11693
encoding utf-8
Sheet 1 1
Title ""
Date "28 mar 2015"
Rev ""
Comp ""
Comment1 ""
Comment2 ""
Comment3 ""
Comment4 ""
$EndDescr
$Comp
L +3.3V-RESCUE-LynxProgrammer #PWR01
U 1 1 550E9657
P 3550 4050
F 0 "#PWR01" H 3550 4010 30  0001 C CNN
F 1 "+3.3V" H 3550 4160 30  0000 C CNN
F 2 "" H 3550 4050 60  0000 C CNN
F 3 "" H 3550 4050 60  0000 C CNN
	1    3550 4050
	1    0    0    -1  
$EndComp
$Comp
L GND-RESCUE-LynxProgrammer #PWR02
U 1 1 550E99DB
P 3550 6050
F 0 "#PWR02" H 3550 6050 30  0001 C CNN
F 1 "GND" H 3550 5980 30  0001 C CNN
F 2 "" H 3550 6050 60  0000 C CNN
F 3 "" H 3550 6050 60  0000 C CNN
	1    3550 6050
	1    0    0    -1  
$EndComp
$Comp
L GND-RESCUE-LynxProgrammer #PWR03
U 1 1 550E9A17
P 5350 6100
F 0 "#PWR03" H 5350 6100 30  0001 C CNN
F 1 "GND" H 5350 6030 30  0001 C CNN
F 2 "" H 5350 6100 60  0000 C CNN
F 3 "" H 5350 6100 60  0000 C CNN
	1    5350 6100
	1    0    0    -1  
$EndComp
$Comp
L MCP23S17-DIL U1
U 1 1 550EB24B
P 7350 3250
F 0 "U1" H 7450 4300 60  0000 C CNN
F 1 "MCP23S17-DIL" H 7750 4200 60  0000 C CNN
F 2 "" H 7350 3250 60  0001 C CNN
F 3 "" H 7350 3250 60  0000 C CNN
	1    7350 3250
	1    0    0    -1  
$EndComp
$Comp
L MCP23S17-DIL U2
U 1 1 550EB25A
P 7350 7600
F 0 "U2" H 7450 8650 60  0000 C CNN
F 1 "MCP23S17-DIL" H 7750 8550 60  0000 C CNN
F 2 "" H 7350 7600 60  0001 C CNN
F 3 "" H 7350 7600 60  0000 C CNN
	1    7350 7600
	1    0    0    -1  
$EndComp
$Comp
L LYNXCART CON1
U 1 1 550EEAD0
P 9650 6200
F 0 "CON1" H 9400 6200 50  0000 C CNN
F 1 "LYNXCART" H 9400 6350 50  0000 C CNN
F 2 "atarilynx-LYNXCART" H 9650 6350 50  0001 C CNN
F 3 "" H 9650 6200 60  0000 C CNN
	1    9650 6200
	1    0    0    -1  
$EndComp
$Comp
L GND-RESCUE-LynxProgrammer #PWR04
U 1 1 5513FDF9
P 11150 4450
F 0 "#PWR04" H 11150 4450 30  0001 C CNN
F 1 "GND" H 11150 4380 30  0001 C CNN
F 2 "" H 11150 4450 60  0000 C CNN
F 3 "" H 11150 4450 60  0000 C CNN
	1    11150 4450
	1    0    0    -1  
$EndComp
$Comp
L HATconnector U3
U 1 1 5AC9F5E3
P 4500 5000
F 0 "U3" H 4500 6050 60  0000 C CNN
F 1 "HATconnector" H 4500 6150 60  0000 C CNN
F 2 "Pin_Headers:Pin_Header_Straight_2x20" H 4500 5400 60  0001 C CNN
F 3 "" H 4500 5400 60  0000 C CNN
	1    4500 5000
	1    0    0    -1  
$EndComp
$Comp
L +5V #PWR05
U 1 1 5AC9F77E
P 5200 3850
F 0 "#PWR05" H 5200 3700 50  0001 C CNN
F 1 "+5V" H 5200 3990 50  0000 C CNN
F 2 "" H 5200 3850 50  0000 C CNN
F 3 "" H 5200 3850 50  0000 C CNN
	1    5200 3850
	1    0    0    -1  
$EndComp
Wire Wire Line
	3550 4050 3900 4050
Connection ~ 3700 4050
Wire Wire Line
	3900 5950 3550 5950
Wire Wire Line
	3550 4450 3550 6050
Wire Wire Line
	6450 2700 6450 7050
Wire Wire Line
	3400 2700 6750 2700
Wire Wire Line
	3300 4950 3300 6250
Wire Wire Line
	3300 6250 6350 6250
Wire Wire Line
	6350 2600 6350 6950
Wire Wire Line
	6350 2600 6750 2600
Wire Wire Line
	5450 2500 5450 6850
Wire Wire Line
	5450 2500 6750 2500
Wire Wire Line
	6350 6950 6750 6950
Connection ~ 6350 6250
Wire Wire Line
	6450 7050 6750 7050
Wire Wire Line
	3700 6850 6750 6850
Wire Wire Line
	9950 5000 10200 5000
Wire Wire Line
	10200 5000 10200 2400
Wire Wire Line
	10200 2400 7950 2400
Wire Wire Line
	9950 4800 10250 4800
Wire Wire Line
	10250 4800 10250 2500
Wire Wire Line
	10250 2500 7950 2500
Wire Wire Line
	9950 4600 10300 4600
Wire Wire Line
	10300 4600 10300 2600
Wire Wire Line
	10300 2600 7950 2600
Wire Wire Line
	9950 4500 10350 4500
Wire Wire Line
	10350 4500 10350 2700
Wire Wire Line
	10350 2700 7950 2700
Wire Wire Line
	9950 4700 10400 4700
Wire Wire Line
	10400 4700 10400 2800
Wire Wire Line
	10400 2800 7950 2800
Wire Wire Line
	9950 4900 10450 4900
Wire Wire Line
	10450 4900 10450 2900
Wire Wire Line
	10450 2900 7950 2900
Wire Wire Line
	9950 5100 10500 5100
Wire Wire Line
	10500 5100 10500 3000
Wire Wire Line
	10500 3000 7950 3000
Wire Wire Line
	9950 5200 10550 5200
Wire Wire Line
	10550 5200 10550 3100
Wire Wire Line
	10550 3100 7950 3100
Wire Wire Line
	9950 6000 10600 6000
Wire Wire Line
	10600 6000 10600 3400
Wire Wire Line
	10600 3400 7950 3400
Wire Wire Line
	9950 5400 10650 5400
Wire Wire Line
	10650 5400 10650 3500
Wire Wire Line
	10650 3500 7950 3500
Wire Wire Line
	9950 5500 10700 5500
Wire Wire Line
	10700 5500 10700 3600
Wire Wire Line
	10700 3600 7950 3600
Wire Wire Line
	9950 5600 10750 5600
Wire Wire Line
	10750 5600 10750 3700
Wire Wire Line
	10750 3700 7950 3700
Wire Wire Line
	9950 5800 10800 5800
Wire Wire Line
	10800 5800 10800 3800
Wire Wire Line
	10800 3800 7950 3800
Wire Wire Line
	9950 5900 10850 5900
Wire Wire Line
	10850 5900 10850 3900
Wire Wire Line
	10850 3900 7950 3900
Wire Wire Line
	9950 5700 10900 5700
Wire Wire Line
	10900 5700 10900 4000
Wire Wire Line
	10900 4000 7950 4000
Wire Wire Line
	9950 6100 10950 6100
Wire Wire Line
	10950 6100 10950 4100
Wire Wire Line
	10950 4100 7950 4100
Wire Wire Line
	7950 6750 9150 6750
Wire Wire Line
	9150 6750 9150 7900
Wire Wire Line
	9150 7900 10150 7900
Wire Wire Line
	10150 7900 10150 7100
Wire Wire Line
	10150 7100 9950 7100
Wire Wire Line
	7950 6850 9100 6850
Wire Wire Line
	9100 6850 9100 7950
Wire Wire Line
	9100 7950 10200 7950
Wire Wire Line
	10200 7950 10200 7200
Wire Wire Line
	10200 7200 9950 7200
Wire Wire Line
	7950 6950 9050 6950
Wire Wire Line
	9050 6950 9050 8000
Wire Wire Line
	9050 8000 10250 8000
Wire Wire Line
	10250 8000 10250 7300
Wire Wire Line
	10250 7300 9950 7300
Wire Wire Line
	7950 7050 9000 7050
Wire Wire Line
	9000 7050 9000 8050
Wire Wire Line
	9000 8050 10300 8050
Wire Wire Line
	10300 8050 10300 6900
Wire Wire Line
	10300 6900 9950 6900
Wire Wire Line
	7950 7150 8950 7150
Wire Wire Line
	8950 7150 8950 8100
Wire Wire Line
	8950 8100 10350 8100
Wire Wire Line
	10350 8100 10350 6800
Wire Wire Line
	10350 6800 9950 6800
Wire Wire Line
	7950 7250 8900 7250
Wire Wire Line
	8900 7250 8900 8150
Wire Wire Line
	8900 8150 10400 8150
Wire Wire Line
	10400 8150 10400 6700
Wire Wire Line
	10400 6700 9950 6700
Wire Wire Line
	7950 7350 8850 7350
Wire Wire Line
	8850 7350 8850 8200
Wire Wire Line
	8850 8200 10450 8200
Wire Wire Line
	10450 8200 10450 6600
Wire Wire Line
	10450 6600 9950 6600
Wire Wire Line
	7950 7450 8800 7450
Wire Wire Line
	8800 7450 8800 8250
Wire Wire Line
	8800 8250 10500 8250
Wire Wire Line
	10500 8250 10500 6200
Wire Wire Line
	10500 6200 9950 6200
Wire Wire Line
	7950 7750 8750 7750
Wire Wire Line
	8750 7750 8750 8300
Wire Wire Line
	8750 8300 10550 8300
Wire Wire Line
	10550 8300 10550 6300
Wire Wire Line
	10550 6300 9950 6300
Wire Wire Line
	7950 7850 8700 7850
Wire Wire Line
	8700 7850 8700 8350
Wire Wire Line
	8700 8350 10600 8350
Wire Wire Line
	10600 8350 10600 6400
Wire Wire Line
	10600 6400 9950 6400
Wire Wire Line
	7950 7950 8650 7950
Wire Wire Line
	8650 7950 8650 8400
Wire Wire Line
	8650 8400 10650 8400
Wire Wire Line
	10650 8400 10650 6500
Wire Wire Line
	10650 6500 9950 6500
Wire Wire Line
	9950 7600 10700 7600
Wire Wire Line
	10700 7600 10700 8650
Wire Wire Line
	10700 8650 2850 8650
Wire Wire Line
	2850 8650 2850 3650
Wire Wire Line
	9950 4400 11150 4400
Wire Wire Line
	11150 4400 11150 4450
Wire Wire Line
	9950 5300 11050 5300
Wire Wire Line
	11050 5300 11050 8700
Wire Wire Line
	7350 4250 7350 4400
Wire Wire Line
	7350 4400 5350 4400
Connection ~ 5350 4400
Wire Wire Line
	5250 8600 7350 8600
Wire Wire Line
	5350 6050 5250 6050
Connection ~ 5350 6050
Wire Wire Line
	6100 2250 6100 5300
Wire Wire Line
	6100 5300 7350 5300
Wire Wire Line
	7350 5300 7350 6650
Wire Wire Line
	6750 3050 6650 3050
Wire Wire Line
	6650 3050 6650 4400
Connection ~ 6650 4400
Wire Wire Line
	6750 3150 6650 3150
Connection ~ 6650 3150
Wire Wire Line
	6750 3250 6650 3250
Connection ~ 6650 3250
Wire Wire Line
	6750 3650 6100 3650
Connection ~ 6100 3650
Wire Wire Line
	6750 7400 6650 7400
Wire Wire Line
	6650 5300 6650 8000
Connection ~ 6650 5300
Wire Wire Line
	5250 7500 6750 7500
Connection ~ 5250 7500
Wire Wire Line
	6750 7600 5250 7600
Connection ~ 5250 7600
Wire Wire Line
	6650 8000 6750 8000
Connection ~ 6650 7400
Connection ~ 7350 8600
Wire Wire Line
	5250 6050 5250 8600
Wire Wire Line
	6750 3500 5750 3500
Wire Wire Line
	5750 3500 5750 7850
Wire Wire Line
	5750 7850 6750 7850
Wire Wire Line
	11350 7500 9950 7500
Wire Wire Line
	11350 2200 11350 7500
Connection ~ 10050 7600
Wire Wire Line
	10050 7400 9950 7400
Wire Wire Line
	5100 4050 5200 4050
Wire Wire Line
	5200 3850 5200 4150
Wire Wire Line
	5200 4150 5100 4150
Connection ~ 5200 4050
Wire Wire Line
	3700 2250 3700 4850
Wire Wire Line
	3700 4850 3900 4850
Wire Wire Line
	3550 4450 3900 4450
Connection ~ 3550 5950
Wire Wire Line
	3900 5250 3550 5250
Connection ~ 3550 5250
Wire Wire Line
	5100 4250 5350 4250
Wire Wire Line
	5350 4250 5350 6100
Wire Wire Line
	5100 5650 5350 5650
Connection ~ 5350 5650
Wire Wire Line
	5100 4950 5350 4950
Connection ~ 5350 4950
Wire Wire Line
	5100 4650 5350 4650
Connection ~ 5350 4650
Wire Wire Line
	5100 5450 5350 5450
Connection ~ 5350 5450
Wire Wire Line
	3300 4950 3900 4950
Wire Wire Line
	11050 8700 5200 8700
Wire Wire Line
	2850 3650 5100 3650
Wire Wire Line
	5100 3650 5100 3900
Wire Wire Line
	5100 3900 5200 3900
Connection ~ 5200 3900
Wire Wire Line
	5100 4750 5300 4750
Wire Wire Line
	5300 4750 5300 2200
Wire Wire Line
	3400 2700 3400 5050
Wire Wire Line
	3400 5050 3900 5050
Connection ~ 6450 2700
Wire Wire Line
	3700 6850 3700 5150
Wire Wire Line
	3700 5150 3900 5150
Connection ~ 5450 6850
Wire Wire Line
	5100 5150 5750 5150
Connection ~ 5750 5150
Wire Wire Line
	5300 2200 11350 2200
Wire Wire Line
	3700 2250 7350 2250
Connection ~ 6100 2250
Wire Wire Line
	10050 7400 10050 7600
Wire Wire Line
	3900 5850 3800 5850
Wire Wire Line
	3800 5850 3800 8750
Wire Wire Line
	3800 8750 11150 8750
Wire Wire Line
	11150 8750 11150 7700
Wire Wire Line
	11150 7700 9950 7700
Wire Wire Line
	9950 7000 10950 7000
Wire Wire Line
	10950 7000 10950 8550
Wire Wire Line
	10950 8550 5850 8550
Wire Wire Line
	5850 8550 5850 5050
Wire Wire Line
	5850 5050 5100 5050
Wire Wire Line
	5200 8700 5200 4850
Wire Wire Line
	5200 4850 5100 4850
Connection ~ 7350 6600
$EndSCHEMATC
