EESchema Schematic File Version 2
LIBS:power
LIBS:device
LIBS:transistors
LIBS:conn
LIBS:linear
LIBS:regul
LIBS:74xx
LIBS:cmos4000
LIBS:adc-dac
LIBS:memory
LIBS:xilinx
LIBS:microcontrollers
LIBS:dsp
LIBS:microchip
LIBS:analog_switches
LIBS:motorola
LIBS:texas
LIBS:intel
LIBS:audio
LIBS:interface
LIBS:digital-audio
LIBS:philips
LIBS:display
LIBS:cypress
LIBS:siliconi
LIBS:opto
LIBS:atmel
LIBS:contrib
LIBS:valves
LIBS:atarilynx
LIBS:Cart-cache
EELAYER 25 0
EELAYER END
$Descr A3 16535 11693
encoding utf-8
Sheet 1 1
Title "2MB Lynx cart"
Date "30 oct 2015"
Rev ""
Comp ""
Comment1 ""
Comment2 ""
Comment3 ""
Comment4 ""
$EndDescr
$Comp
L LYNXCART CON1
U 1 1 551BBE29
P 2350 3650
F 0 "CON1" H 2550 5600 50  0000 C CNN
F 1 "LYNXCART" H 2150 5600 50  0000 C CNN
F 2 "TsopCart:atarilynx-LYNXCART" H 2350 3800 50  0001 C CNN
F 3 "" H 2350 3650 60  0000 C CNN
	1    2350 3650
	1    0    0    -1  
$EndComp
$Comp
L SST39SF010A U1
U 1 1 551BD38A
P 5450 1850
F 0 "U1" H 5400 900 60  0000 C CNN
F 1 "SST39SF010A" H 5450 1850 60  0000 C CNN
F 2 "TsopCart:TSOP32" H 5450 1850 60  0000 C CNN
F 3 "" H 5450 1850 60  0000 C CNN
F 4 "SST39SF040-55-4I-NHE" H 5450 1850 60  0001 C CNN "manf#"
	1    5450 1850
	1    0    0    -1  
$EndComp
$Comp
L 24AA256SN IC1
U 1 1 55817E2D
P 12750 3350
F 0 "IC1" H 12350 3800 50  0000 L BNN
F 1 "24AA256SN" H 12350 2950 50  0000 L BNN
F 2 "Housings_SSOP:TSSOP-8_4.4x3mm_Pitch0.65mm" H 12750 3500 50  0001 C CNN
F 3 "" H 12750 3350 60  0000 C CNN
F 4 "24AA512-I/SN" H 12750 3350 60  0001 C CNN "manf#"
	1    12750 3350
	1    0    0    -1  
$EndComp
$Comp
L 93LCS66SM IC2
U 1 1 55AA53C8
P 11400 3350
F 0 "IC2" H 11000 3800 50  0000 L BNN
F 1 "93LCS66SM" H 11000 2850 50  0000 L BNN
F 2 "Housings_SSOP:TSSOP-8_4.4x3mm_Pitch0.65mm" H 11400 3500 50  0001 C CNN
F 3 "" H 11400 3350 60  0000 C CNN
F 4 "93LC86" H 11400 3350 60  0001 C CNN "manf#"
	1    11400 3350
	1    0    0    -1  
$EndComp
$Comp
L SST39SF010A U2
U 1 1 587F1BC0
P 6850 1850
F 0 "U2" H 6800 900 60  0000 C CNN
F 1 "SST39SF010A" H 6850 1850 60  0000 C CNN
F 2 "TsopCart:TSOP32" H 6850 1850 60  0000 C CNN
F 3 "" H 6850 1850 60  0000 C CNN
F 4 "SST39SF040-55-4I-NHE" H 6850 1850 60  0001 C CNN "manf#"
	1    6850 1850
	1    0    0    -1  
$EndComp
$Comp
L SST39SF010A U3
U 1 1 587F1CA1
P 8250 1850
F 0 "U3" H 8200 900 60  0000 C CNN
F 1 "SST39SF010A" H 8250 1850 60  0000 C CNN
F 2 "TsopCart:TSOP32" H 8250 1850 60  0000 C CNN
F 3 "" H 8250 1850 60  0000 C CNN
F 4 "SST39SF040-55-4I-NHE" H 8250 1850 60  0001 C CNN "manf#"
	1    8250 1850
	1    0    0    -1  
$EndComp
$Comp
L SST39SF010A U4
U 1 1 587F1D2D
P 9650 1850
F 0 "U4" H 9600 900 60  0000 C CNN
F 1 "SST39SF010A" H 9650 1850 60  0000 C CNN
F 2 "TsopCart:TSOP32" H 9650 1850 60  0000 C CNN
F 3 "" H 9650 1850 60  0000 C CNN
F 4 "SST39SF040-55-4I-NHE" H 9650 1850 60  0001 C CNN "manf#"
	1    9650 1850
	1    0    0    -1  
$EndComp
$Comp
L 74LS06 U5
U 1 1 587FA4DC
P 10450 6900
F 0 "U5" H 10645 7015 50  0000 C CNN
F 1 "74LS06" H 10640 6775 50  0000 C CNN
F 2 "TsopCart:TSOP-14" H 10450 6900 50  0001 C CNN
F 3 "" H 10450 6900 50  0000 C CNN
	1    10450 6900
	1    0    0    -1  
$EndComp
$Comp
L 74LS06 U5
U 2 1 587FA553
P 11350 6900
F 0 "U5" H 11545 7015 50  0000 C CNN
F 1 "74LS06" H 11540 6775 50  0000 C CNN
F 2 "TsopCart:TSOP-14" H 11350 6900 50  0001 C CNN
F 3 "" H 11350 6900 50  0000 C CNN
	2    11350 6900
	1    0    0    -1  
$EndComp
$Comp
L 74LS32 U6
U 1 1 587FA76A
P 5550 6250
F 0 "U6" H 5550 6300 50  0000 C CNN
F 1 "74LS32" H 5550 6200 50  0000 C CNN
F 2 "TsopCart:TSOP-14" H 5550 6250 50  0001 C CNN
F 3 "" H 5550 6250 50  0000 C CNN
	1    5550 6250
	1    0    0    -1  
$EndComp
$Comp
L 74LS32 U6
U 2 1 587FA7C7
P 5550 6900
F 0 "U6" H 5550 6950 50  0000 C CNN
F 1 "74LS32" H 5550 6850 50  0000 C CNN
F 2 "TsopCart:TSOP-14" H 5550 6900 50  0001 C CNN
F 3 "" H 5550 6900 50  0000 C CNN
	2    5550 6900
	1    0    0    -1  
$EndComp
$Comp
L 74LS32 U6
U 3 1 587FA808
P 5550 7550
F 0 "U6" H 5550 7600 50  0000 C CNN
F 1 "74LS32" H 5550 7500 50  0000 C CNN
F 2 "TsopCart:TSOP-14" H 5550 7550 50  0001 C CNN
F 3 "" H 5550 7550 50  0000 C CNN
	3    5550 7550
	1    0    0    -1  
$EndComp
$Comp
L 74LS32 U6
U 4 1 587FA83F
P 5550 8200
F 0 "U6" H 5550 8250 50  0000 C CNN
F 1 "74LS32" H 5550 8150 50  0000 C CNN
F 2 "TsopCart:TSOP-14" H 5550 8200 50  0001 C CNN
F 3 "" H 5550 8200 50  0000 C CNN
	4    5550 8200
	1    0    0    -1  
$EndComp
Wire Wire Line
	3750 2000 9000 2000
Wire Wire Line
	3750 2000 3750 2450
Wire Wire Line
	3750 2450 2650 2450
Wire Wire Line
	3700 2100 9000 2100
Wire Wire Line
	3700 2100 3700 2250
Wire Wire Line
	3700 2250 2650 2250
Wire Wire Line
	3650 2200 9000 2200
Wire Wire Line
	3650 2200 3650 2050
Wire Wire Line
	3650 2050 2650 2050
Wire Wire Line
	3800 2300 9000 2300
Wire Wire Line
	3800 2300 3800 1950
Wire Wire Line
	3800 1950 2650 1950
Wire Wire Line
	3550 2400 9000 2400
Wire Wire Line
	3550 2400 3550 2150
Wire Wire Line
	3550 2150 2650 2150
Wire Wire Line
	3450 2500 9000 2500
Wire Wire Line
	3450 2500 3450 2350
Wire Wire Line
	3450 2350 2650 2350
Wire Wire Line
	3350 2600 9000 2600
Wire Wire Line
	3350 2600 3350 2550
Wire Wire Line
	3350 2550 2650 2550
Wire Wire Line
	3300 2700 9000 2700
Wire Wire Line
	3300 2700 3300 2650
Wire Wire Line
	3300 2650 2650 2650
Wire Wire Line
	3950 2900 9000 2900
Wire Wire Line
	3950 2900 3950 3450
Wire Wire Line
	3950 3450 2650 3450
Wire Wire Line
	4050 3000 9000 3000
Wire Wire Line
	4050 3000 4050 2850
Wire Wire Line
	4050 2850 2650 2850
Wire Wire Line
	3850 3100 9000 3100
Wire Wire Line
	3850 3100 3850 2950
Wire Wire Line
	3850 2950 2650 2950
Wire Wire Line
	3800 3200 9000 3200
Wire Wire Line
	3800 3200 3800 3050
Wire Wire Line
	3800 3050 2650 3050
Wire Wire Line
	3750 3300 9000 3300
Wire Wire Line
	3750 3300 3750 3250
Wire Wire Line
	3750 3250 2650 3250
Wire Wire Line
	3600 3400 9000 3400
Wire Wire Line
	3600 3400 3600 3350
Wire Wire Line
	3600 3350 2650 3350
Wire Wire Line
	3500 3500 9000 3500
Wire Wire Line
	3500 3500 3500 3150
Wire Wire Line
	3500 3150 2650 3150
Wire Wire Line
	3400 3600 9000 3600
Wire Wire Line
	3400 3600 3400 3550
Wire Wire Line
	3400 3550 2650 3550
Wire Wire Line
	2800 5050 2650 5050
Wire Wire Line
	2650 4850 4100 4850
Wire Wire Line
	2650 3650 3300 3650
Wire Wire Line
	3300 3650 3300 4400
Wire Wire Line
	3300 4400 9000 4400
Wire Wire Line
	2650 3750 3350 3750
Wire Wire Line
	3350 3750 3350 4500
Wire Wire Line
	3350 4500 9000 4500
Wire Wire Line
	2650 3850 3400 3850
Wire Wire Line
	3400 3850 3400 4600
Wire Wire Line
	3400 4600 9000 4600
Wire Wire Line
	2650 3950 3450 3950
Wire Wire Line
	3450 3950 3450 4700
Wire Wire Line
	3450 4700 9000 4700
Wire Wire Line
	2650 4050 3500 4050
Wire Wire Line
	3500 4050 3500 4300
Wire Wire Line
	3500 4300 9000 4300
Wire Wire Line
	2650 4150 3550 4150
Wire Wire Line
	3550 4150 3550 4200
Wire Wire Line
	3550 4200 9000 4200
Wire Wire Line
	2650 4250 3600 4250
Wire Wire Line
	3600 4250 3600 4100
Wire Wire Line
	3600 4100 9000 4100
Wire Wire Line
	2650 4350 3650 4350
Wire Wire Line
	3650 4350 3650 4000
Wire Wire Line
	3650 4000 9000 4000
Wire Wire Line
	3700 3900 9000 3900
Wire Wire Line
	3700 3900 3700 4750
Wire Wire Line
	3700 4750 2650 4750
Wire Wire Line
	2650 4750 2650 4800
Wire Wire Line
	2650 4650 3750 4650
Wire Wire Line
	3750 4650 3750 3800
Wire Wire Line
	3750 3800 9000 3800
Wire Wire Line
	2650 4550 3800 4550
Wire Wire Line
	3800 4550 3800 3700
Wire Wire Line
	3800 3700 9000 3700
Wire Wire Line
	2650 4450 2900 4450
Wire Wire Line
	2900 4450 2900 7650
Wire Wire Line
	11700 5450 3150 5450
Wire Wire Line
	4100 1200 11700 1200
Wire Wire Line
	4100 4850 4100 1200
Connection ~ 2800 4850
Wire Wire Line
	2650 1850 3150 1850
Wire Wire Line
	3150 1850 3150 5450
Connection ~ 5450 1200
Connection ~ 5500 5450
Wire Wire Line
	10400 2250 10400 5350
Wire Wire Line
	10400 5350 3100 5350
Wire Wire Line
	13050 2350 13050 2850
Wire Wire Line
	10400 2250 13350 2250
Wire Wire Line
	13350 2250 13350 3350
Wire Wire Line
	12250 3150 12250 4000
Connection ~ 12250 3550
Connection ~ 12250 3450
Connection ~ 12250 3350
Wire Wire Line
	13050 4000 13050 3750
Connection ~ 12250 4000
Wire Wire Line
	11700 3850 11700 5450
Wire Wire Line
	11700 4000 13050 4000
Connection ~ 11700 4000
Wire Wire Line
	10900 1100 10900 3050
Wire Wire Line
	10900 1100 4550 1100
Wire Wire Line
	4550 1100 4550 3000
Connection ~ 4550 3000
Wire Wire Line
	10900 3350 10800 3350
Wire Wire Line
	10800 3350 10800 1000
Wire Wire Line
	10800 1000 4450 1000
Wire Wire Line
	4450 1000 4450 3600
Connection ~ 4450 3600
Wire Wire Line
	11700 1200 11700 2850
Wire Wire Line
	13050 2350 11700 2350
Connection ~ 11700 2350
Wire Wire Line
	12000 3350 12000 3900
Wire Wire Line
	12000 3900 10900 3900
Wire Wire Line
	10900 3900 10900 3650
Wire Wire Line
	10900 3650 10400 3650
Connection ~ 10400 3650
Wire Wire Line
	10900 2750 12200 2750
Wire Wire Line
	12200 2750 12200 3050
Wire Wire Line
	12200 3050 12250 3050
Connection ~ 10900 2750
Wire Wire Line
	10700 3450 10900 3450
Wire Wire Line
	10700 2650 10700 3450
Wire Wire Line
	10700 2650 11700 2650
Connection ~ 11700 2650
Wire Wire Line
	2800 4850 2800 5050
Connection ~ 4800 2000
Connection ~ 4800 2100
Connection ~ 4800 2200
Connection ~ 4800 2300
Connection ~ 4800 2400
Connection ~ 4800 2500
Connection ~ 4800 2600
Connection ~ 4800 2700
Connection ~ 4800 2900
Connection ~ 4800 3000
Connection ~ 4800 3100
Connection ~ 4800 3200
Connection ~ 4800 3300
Connection ~ 4800 3400
Connection ~ 4800 3500
Connection ~ 4800 3600
Connection ~ 4800 3700
Connection ~ 4800 3800
Connection ~ 4800 3900
Connection ~ 4800 4000
Connection ~ 4800 4100
Connection ~ 4800 4200
Connection ~ 4800 4300
Connection ~ 4800 4400
Connection ~ 4800 4500
Connection ~ 4800 4600
Connection ~ 4800 4700
Connection ~ 6200 2000
Connection ~ 7600 2000
Connection ~ 6200 2100
Connection ~ 7600 2100
Connection ~ 6200 2200
Connection ~ 7600 2200
Connection ~ 6200 2300
Connection ~ 7600 2300
Connection ~ 6200 2400
Connection ~ 7600 2400
Connection ~ 6200 2500
Connection ~ 7600 2500
Connection ~ 6200 2600
Connection ~ 7600 2600
Connection ~ 6200 2700
Connection ~ 7600 2700
Connection ~ 6200 2900
Connection ~ 7600 2900
Connection ~ 6200 3000
Connection ~ 7600 3000
Connection ~ 6200 3100
Connection ~ 7600 3100
Connection ~ 6200 3200
Connection ~ 7600 3200
Connection ~ 6200 3300
Connection ~ 7600 3300
Connection ~ 6200 3400
Connection ~ 7600 3400
Connection ~ 6200 3500
Connection ~ 7600 3500
Connection ~ 6200 3600
Connection ~ 7600 3600
Connection ~ 6200 3700
Connection ~ 7600 3700
Connection ~ 6200 3800
Connection ~ 7600 3800
Connection ~ 6200 3900
Connection ~ 7600 3900
Connection ~ 6200 4000
Connection ~ 7600 4000
Connection ~ 6200 4100
Connection ~ 7600 4100
Connection ~ 6200 4200
Connection ~ 7600 4200
Connection ~ 6200 4300
Connection ~ 7600 4300
Connection ~ 6200 4400
Connection ~ 7600 4400
Connection ~ 6200 4500
Connection ~ 7600 4500
Connection ~ 6200 4600
Connection ~ 7600 4600
Connection ~ 6200 4700
Connection ~ 7600 4700
Connection ~ 6900 5450
Connection ~ 8300 5450
Connection ~ 9700 5450
Connection ~ 6850 1200
Connection ~ 8250 1200
Connection ~ 9650 1200
Connection ~ 4800 5000
Wire Wire Line
	2650 4950 3100 4950
Connection ~ 3100 5350
Wire Wire Line
	2650 5150 3000 5150
Wire Wire Line
	3000 5150 3000 7450
Wire Wire Line
	6150 6250 7500 6250
Wire Wire Line
	6250 6250 6250 5900
Wire Wire Line
	6250 5900 4650 5900
Wire Wire Line
	4650 5900 4650 5100
Wire Wire Line
	4650 5100 4800 5100
Wire Wire Line
	7500 6250 7500 5100
Wire Wire Line
	7500 5100 7600 5100
Connection ~ 6250 6250
Wire Wire Line
	6150 6900 7400 6900
Wire Wire Line
	6350 6900 6350 5800
Wire Wire Line
	6350 5800 4550 5800
Wire Wire Line
	4550 5800 4550 4900
Wire Wire Line
	4550 4900 4800 4900
Wire Wire Line
	7400 6900 7400 4900
Wire Wire Line
	7400 4900 7600 4900
Connection ~ 6350 6900
Wire Wire Line
	6150 7550 8900 7550
Wire Wire Line
	6450 7550 6450 5700
Wire Wire Line
	6450 5700 6100 5700
Wire Wire Line
	6100 5700 6100 5100
Wire Wire Line
	6100 5100 6200 5100
Wire Wire Line
	8900 7550 8900 5100
Wire Wire Line
	8900 5100 9000 5100
Connection ~ 6450 7550
Wire Wire Line
	6150 8200 8800 8200
Wire Wire Line
	6550 8200 6550 5600
Wire Wire Line
	6550 5600 6000 5600
Wire Wire Line
	6000 5600 6000 4900
Wire Wire Line
	6000 4900 6200 4900
Wire Wire Line
	8800 8200 8800 4900
Wire Wire Line
	8800 4900 9000 4900
Connection ~ 6550 8200
Wire Wire Line
	4950 6150 3000 6150
Connection ~ 3000 6150
Wire Wire Line
	3000 7450 4950 7450
Wire Wire Line
	3000 6800 3200 6800
Connection ~ 3000 6800
Wire Wire Line
	4100 6800 4950 6800
Wire Wire Line
	4200 6800 4200 8100
Wire Wire Line
	4200 8100 4950 8100
Connection ~ 4200 6800
Wire Wire Line
	4950 6350 4350 6350
Wire Wire Line
	4350 2750 4350 7000
Wire Wire Line
	4350 2750 2650 2750
Wire Wire Line
	4350 7000 4950 7000
Connection ~ 4350 6350
Wire Wire Line
	2900 7650 4950 7650
Wire Wire Line
	4350 7650 4350 8300
Wire Wire Line
	4350 8300 4950 8300
Connection ~ 4350 7650
Wire Wire Line
	3100 4950 3100 8650
Wire Wire Line
	3100 8650 3200 8650
Wire Wire Line
	3100 5000 6200 5000
Connection ~ 3100 5000
Wire Wire Line
	4100 8650 8700 8650
Wire Wire Line
	7300 8650 7300 5000
Wire Wire Line
	7300 5000 7600 5000
Wire Wire Line
	8700 8650 8700 5000
Wire Wire Line
	8700 5000 9000 5000
Connection ~ 7300 8650
$Comp
L 74LS06 U5
U 3 1 587FC7A9
P 12250 6900
F 0 "U5" H 12445 7015 50  0000 C CNN
F 1 "74LS06" H 12440 6775 50  0000 C CNN
F 2 "TsopCart:TSOP-14" H 12250 6900 50  0001 C CNN
F 3 "" H 12250 6900 50  0000 C CNN
	3    12250 6900
	1    0    0    -1  
$EndComp
$Comp
L 74LS06 U5
U 6 1 587FC7FC
P 10450 6100
F 0 "U5" H 10645 6215 50  0000 C CNN
F 1 "74LS06" H 10640 5975 50  0000 C CNN
F 2 "TsopCart:TSOP-14" H 10450 6100 50  0001 C CNN
F 3 "" H 10450 6100 50  0000 C CNN
	6    10450 6100
	1    0    0    -1  
$EndComp
$Comp
L 74LS06 U5
U 5 1 587FC847
P 3650 8650
F 0 "U5" H 3845 8765 50  0000 C CNN
F 1 "74LS06" H 3840 8525 50  0000 C CNN
F 2 "TsopCart:TSOP-14" H 3650 8650 50  0001 C CNN
F 3 "" H 3650 8650 50  0000 C CNN
	5    3650 8650
	1    0    0    -1  
$EndComp
$Comp
L 74LS06 U5
U 4 1 587FC892
P 3650 6800
F 0 "U5" H 3845 6915 50  0000 C CNN
F 1 "74LS06" H 3840 6675 50  0000 C CNN
F 2 "TsopCart:TSOP-14" H 3650 6800 50  0001 C CNN
F 3 "" H 3650 6800 50  0000 C CNN
	4    3650 6800
	1    0    0    -1  
$EndComp
Wire Wire Line
	10000 5450 10000 6900
Connection ~ 10000 5450
Connection ~ 10000 6100
$Comp
L GND #PWR01
U 1 1 587FD490
P 9700 5550
F 0 "#PWR01" H 9700 5300 50  0001 C CNN
F 1 "GND" H 9700 5400 50  0000 C CNN
F 2 "" H 9700 5550 50  0000 C CNN
F 3 "" H 9700 5550 50  0000 C CNN
	1    9700 5550
	1    0    0    -1  
$EndComp
Wire Wire Line
	9700 5450 9700 5550
Wire Wire Line
	11250 1100 11250 1200
Connection ~ 11250 1200
$Comp
L VCC #PWR02
U 1 1 587FDA8C
P 11250 1100
F 0 "#PWR02" H 11250 950 50  0001 C CNN
F 1 "VCC" H 11250 1250 50  0000 C CNN
F 2 "" H 11250 1100 50  0000 C CNN
F 3 "" H 11250 1100 50  0000 C CNN
	1    11250 1100
	1    0    0    -1  
$EndComp
Text Notes 5250 850  0    60   ~ 0
AUDIN 0\nOE
Text Notes 6550 850  0    60   ~ 0
AUDIN 0\nWR
Text Notes 8000 850  0    60   ~ 0
AUDIN 1\nOE
Text Notes 9450 850  0    60   ~ 0
AUDIN 1\nWR
Text Notes 6800 6200 0    60   ~ 0
WR
Text Notes 6850 6850 0    60   ~ 0
OE
Text Notes 6850 7500 0    60   ~ 0
WR
Text Notes 6850 8150 0    60   ~ 0
OE
Text Notes 4200 5900 0    60   ~ 0
OE
Text Notes 3250 4950 0    60   ~ 0
AUDIN
Text Notes 3400 7600 0    60   ~ 0
WE
$EndSCHEMATC
